  0
SECTION
  2
HEADER
  9
$ACADVER
  1
AC1014
  9
$HANDSEED
  5
FFFF
  9
$MEASUREMENT
 70
     1
  0
ENDSEC
  0
SECTION
  2
TABLES
  0
TABLE
  2
VPORT
  5
8
330
0
100
AcDbSymbolTable
 70
     4
  0
VPORT
  5
2E
330
8
100
AcDbSymbolTableRecord
100
AcDbViewportTableRecord
  2
*ACTIVE
 70
     0
 10
0.0
 20
0.0
 11
1.0
 21
1.0
 12
210.0
 22
148.5
 13
0.0
 23
0.0
 14
10.0
 24
10.0
 15
10.0
 25
10.0
 16
0.0
 26
0.0
 36
1.0
 17
0.0
 27
0.0
 37
0.0
 40
341.0
 41
1.24
 42
50.0
 43
0.0
 44
0.0
 50
0.0
 51
0.0
 71
     0
 72
   100
 73
     1
 74
     3
 75
     0
 76
     0
 77
     0
 78
     0
  0
ENDTAB
  0
TABLE
  2
LTYPE
  5
5
330
0
100
AcDbSymbolTable
 70
     1
  0
LTYPE
  5
14
330
5
100
AcDbSymbolTableRecord
100
AcDbLinetypeTableRecord
  2
BYBLOCK
 70
     0
  3

 72
    65
 73
     0
 40
0.0
  0
LTYPE
  5
15
330
5
100
AcDbSymbolTableRecord
100
AcDbLinetypeTableRecord
  2
BYLAYER
 70
     0
  3

 72
    65
 73
     0
 40
0.0
  0
LTYPE
  5
16
330
5
100
AcDbSymbolTableRecord
100
AcDbLinetypeTableRecord
  2
CONTINUOUS
 70
     0
  3
Solid line
 72
    65
 73
     0
 40
0.0
  0
ENDTAB
  0
TABLE
  2
LAYER
  5
2
100
AcDbSymbolTable
 70
2
  0
LAYER
  5
50
100
AcDbSymbolTableRecord
100
AcDbLayerTableRecord
  2
0
 70
0
  6
CONTINUOUS
  0
LAYER
  5
51
100
AcDbSymbolTableRecord
100
AcDbLayerTableRecord
  2
12x12_finial_cross
 70
0
  6
CONTINUOUS
  0
ENDTAB
  0
TABLE
  2
STYLE
  5
3
330
0
100
AcDbSymbolTable
 70
     1
  0
STYLE
  5
11
330
3
100
AcDbSymbolTableRecord
100
AcDbTextStyleTableRecord
  2
STANDARD
 70
     0
 40
0.0
 41
1.0
 50
0.0
 71
     0
 42
2.5
  3
txt
  4

  0
ENDTAB
  0
TABLE
  2
VIEW
  5
6
330
0
100
AcDbSymbolTable
 70
     0
  0
ENDTAB
  0
TABLE
  2
UCS
  5
7
330
0
100
AcDbSymbolTable
 70
     0
  0
ENDTAB
  0
TABLE
  2
APPID
  5
9
330
0
100
AcDbSymbolTable
 70
     2
  0
APPID
  5
12
330
9
100
AcDbSymbolTableRecord
100
AcDbRegAppTableRecord
  2
ACAD
 70
     0
  0
ENDTAB
  0
TABLE
  2
DIMSTYLE
  5
A
330
0
100
AcDbSymbolTable
 70
     1
  0
DIMSTYLE
105
27
330
A
100
AcDbSymbolTableRecord
100
AcDbDimStyleTableRecord
  2
ISO-25
 70
     0
  3

  4

  5

  6

  7

 40
1.0
 41
2.5
 42
0.625
 43
3.75
 44
1.25
 45
0.0
 46
0.0
 47
0.0
 48
0.0
140
2.5
141
2.5
142
0.0
143
0.03937007874016
144
1.0
145
0.0
146
1.0
147
0.625
 71
     0
 72
     0
 73
     0
 74
     0
 75
     0
 76
     0
 77
     1
 78
     8
170
     0
171
     3
172
     1
173
     0
174
     0
175
     0
176
     0
177
     0
178
     0
270
     2
271
     2
272
     2
273
     2
274
     3
340
11
275
     0
280
     0
281
     0
282
     0
283
     0
284
     8
285
     0
286
     0
287
     3
288
     0
  0
ENDTAB
  0
TABLE
  2
BLOCK_RECORD
  5
1
330
0
100
AcDbSymbolTable
 70
     1
  0
BLOCK_RECORD
  5
1F
330
1
100
AcDbSymbolTableRecord
100
AcDbBlockTableRecord
  2
*MODEL_SPACE
  0
BLOCK_RECORD
  5
1B
330
1
100
AcDbSymbolTableRecord
100
AcDbBlockTableRecord
  2
*PAPER_SPACE
  0
ENDTAB
  0
ENDSEC
  0
SECTION
  2
BLOCKS
  0
BLOCK
  5
20
330
1F
100
AcDbEntity
  8
0
100
AcDbBlockBegin
  2
*MODEL_SPACE
 70
     0
 10
0.0
 20
0.0
 30
0.0
  3
*MODEL_SPACE
  1

  0
ENDBLK
  5
21
330
1F
100
AcDbEntity
  8
0
100
AcDbBlockEnd
  0
BLOCK
  5
1C
330
1B
100
AcDbEntity
 67
     1
  8
0
100
AcDbBlockBegin
  2
*PAPER_SPACE
  1

  0
ENDBLK
  5
1D
330
1B
100
AcDbEntity
 67
     1
  8
0
100
AcDbBlockEnd
  0
ENDSEC
  0
SECTION
  2
ENTITIES
  0
SPLINE
  5
100
100
AcDbEntity
  8
12x12_finial_cross
 62
7
100
AcDbSpline
 70
8
 71
3
 72
8
 73
4
 74
0
 40
0
 40
0
 40
0
 40
0
 40
1
 40
1
 40
1
 40
1
 10
7.931160
 20
6.445898
 30
0.0
 10
8.080069
 20
6.445898
 30
0.0
 10
8.200838
 20
6.566681
 30
0.0
 10
8.200838
 20
6.715571
 30
0.0
  0
SPLINE
  5
101
100
AcDbEntity
  8
12x12_finial_cross
 62
7
100
AcDbSpline
 70
8
 71
3
 72
8
 73
4
 74
0
 40
0
 40
0
 40
0
 40
0
 40
1
 40
1
 40
1
 40
1
 10
8.200838
 20
6.715571
 30
0.0
 10
8.200838
 20
6.864480
 30
0.0
 10
8.080069
 20
6.985250
 30
0.0
 10
7.931160
 20
6.985250
 30
0.0
  0
SPLINE
  5
102
100
AcDbEntity
  8
12x12_finial_cross
 62
7
100
AcDbSpline
 70
8
 71
3
 72
8
 73
4
 74
0
 40
0
 40
0
 40
0
 40
0
 40
1
 40
1
 40
1
 40
1
 10
7.931160
 20
6.985250
 30
0.0
 10
8.024976
 20
7.099202
 30
0.0
 10
8.164731
 20
7.165463
 30
0.0
 10
8.312341
 20
7.165463
 30
0.0
  0
SPLINE
  5
103
100
AcDbEntity
  8
12x12_finial_cross
 62
7
100
AcDbSpline
 70
8
 71
3
 72
8
 73
4
 74
0
 40
0
 40
0
 40
0
 40
0
 40
1
 40
1
 40
1
 40
1
 10
8.312341
 20
7.165463
 30
0.0
 10
8.585093
 20
7.165463
 30
0.0
 10
8.806312
 20
6.944251
 30
0.0
 10
8.806312
 20
6.671490
 30
0.0
  0
SPLINE
  5
104
100
AcDbEntity
  8
12x12_finial_cross
 62
7
100
AcDbSpline
 70
8
 71
3
 72
8
 73
4
 74
0
 40
0
 40
0
 40
0
 40
0
 40
1
 40
1
 40
1
 40
1
 10
8.806312
 20
6.671490
 30
0.0
 10
8.806312
 20
6.556983
 30
0.0
 10
8.766300
 20
6.446134
 30
0.0
 10
8.693509
 20
6.357734
 30
0.0
  0
SPLINE
  5
105
100
AcDbEntity
  8
12x12_finial_cross
 62
7
100
AcDbSpline
 70
8
 71
3
 72
8
 73
4
 74
0
 40
0
 40
0
 40
0
 40
0
 40
1
 40
1
 40
1
 40
1
 10
8.693509
 20
6.357734
 30
0.0
 10
8.982486
 20
6.357734
 30
0.0
 10
9.249797
 20
6.203461
 30
0.0
 10
9.394281
 20
5.953216
 30
0.0
  0
SPLINE
  5
106
100
AcDbEntity
  8
12x12_finial_cross
 62
7
100
AcDbSpline
 70
8
 71
3
 72
8
 73
4
 74
0
 40
0
 40
0
 40
0
 40
0
 40
1
 40
1
 40
1
 40
1
 10
9.394281
 20
5.953216
 30
0.0
 10
9.249797
 20
5.702978
 30
0.0
 10
8.982486
 20
5.548705
 30
0.0
 10
8.693509
 20
5.548705
 30
0.0
  0
SPLINE
  5
107
100
AcDbEntity
  8
12x12_finial_cross
 62
7
100
AcDbSpline
 70
8
 71
3
 72
8
 73
4
 74
0
 40
0
 40
0
 40
0
 40
0
 40
1
 40
1
 40
1
 40
1
 10
8.693509
 20
5.548705
 30
0.0
 10
8.766300
 20
5.460305
 30
0.0
 10
8.806312
 20
5.349456
 30
0.0
 10
8.806312
 20
5.234945
 30
0.0
  0
SPLINE
  5
108
100
AcDbEntity
  8
12x12_finial_cross
 62
7
100
AcDbSpline
 70
8
 71
3
 72
8
 73
4
 74
0
 40
0
 40
0
 40
0
 40
0
 40
1
 40
1
 40
1
 40
1
 10
8.806312
 20
5.234945
 30
0.0
 10
8.806312
 20
4.962188
 30
0.0
 10
8.585093
 20
4.740975
 30
0.0
 10
8.312341
 20
4.740975
 30
0.0
  0
SPLINE
  5
109
100
AcDbEntity
  8
12x12_finial_cross
 62
7
100
AcDbSpline
 70
8
 71
3
 72
8
 73
4
 74
0
 40
0
 40
0
 40
0
 40
0
 40
1
 40
1
 40
1
 40
1
 10
8.312341
 20
4.740975
 30
0.0
 10
8.164731
 20
4.740975
 30
0.0
 10
8.024976
 20
4.807233
 30
0.0
 10
7.931160
 20
4.921190
 30
0.0
  0
SPLINE
  5
10a
100
AcDbEntity
  8
12x12_finial_cross
 62
7
100
AcDbSpline
 70
8
 71
3
 72
8
 73
4
 74
0
 40
0
 40
0
 40
0
 40
0
 40
1
 40
1
 40
1
 40
1
 10
7.931160
 20
4.921190
 30
0.0
 10
8.080069
 20
4.921190
 30
0.0
 10
8.200838
 20
5.041309
 30
0.0
 10
8.200838
 20
5.190218
 30
0.0
  0
SPLINE
  5
10b
100
AcDbEntity
  8
12x12_finial_cross
 62
7
100
AcDbSpline
 70
8
 71
3
 72
8
 73
4
 74
0
 40
0
 40
0
 40
0
 40
0
 40
1
 40
1
 40
1
 40
1
 10
8.200838
 20
5.190218
 30
0.0
 10
8.200838
 20
5.339113
 30
0.0
 10
8.080069
 20
5.459893
 30
0.0
 10
7.931160
 20
5.459892
 30
0.0
  0
LWPOLYLINE
  5
10c
100
AcDbEntity
  8
12x12_finial_cross
 62
7
100
AcDbPolyline
 90
4
 70
1
 10
0.000000
 20
11.953216
 30
0.0
 10
12.000000
 20
11.953216
 30
0.0
 10
12.000000
 20
-0.046784
 30
0.0
 10
0.000000
 20
-0.046784
 30
0.0
  0
SPLINE
  5
10d
100
AcDbEntity
  8
12x12_finial_cross
 62
7
100
AcDbSpline
 70
8
 71
3
 72
8
 73
4
 74
0
 40
0
 40
0
 40
0
 40
0
 40
1
 40
1
 40
1
 40
1
 10
6.492676
 20
4.022057
 30
0.0
 10
6.492676
 20
3.873148
 30
0.0
 10
6.613460
 20
3.752379
 30
0.0
 10
6.762350
 20
3.752379
 30
0.0
  0
SPLINE
  5
10e
100
AcDbEntity
  8
12x12_finial_cross
 62
7
100
AcDbSpline
 70
8
 71
3
 72
8
 73
4
 74
0
 40
0
 40
0
 40
0
 40
0
 40
1
 40
1
 40
1
 40
1
 10
6.762350
 20
3.752379
 30
0.0
 10
6.911259
 20
3.752379
 30
0.0
 10
7.032028
 20
3.873148
 30
0.0
 10
7.032028
 20
4.022057
 30
0.0
  0
SPLINE
  5
10f
100
AcDbEntity
  8
12x12_finial_cross
 62
7
100
AcDbSpline
 70
8
 71
3
 72
8
 73
4
 74
0
 40
0
 40
0
 40
0
 40
0
 40
1
 40
1
 40
1
 40
1
 10
7.032028
 20
4.022057
 30
0.0
 10
7.145980
 20
3.928241
 30
0.0
 10
7.212242
 20
3.788486
 30
0.0
 10
7.212242
 20
3.640876
 30
0.0
  0
SPLINE
  5
110
100
AcDbEntity
  8
12x12_finial_cross
 62
7
100
AcDbSpline
 70
8
 71
3
 72
8
 73
4
 74
0
 40
0
 40
0
 40
0
 40
0
 40
1
 40
1
 40
1
 40
1
 10
7.212242
 20
3.640876
 30
0.0
 10
7.212242
 20
3.368123
 30
0.0
 10
6.991029
 20
3.146905
 30
0.0
 10
6.718268
 20
3.146905
 30
0.0
  0
SPLINE
  5
111
100
AcDbEntity
  8
12x12_finial_cross
 62
7
100
AcDbSpline
 70
8
 71
3
 72
8
 73
4
 74
0
 40
0
 40
0
 40
0
 40
0
 40
1
 40
1
 40
1
 40
1
 10
6.718268
 20
3.146905
 30
0.0
 10
6.603762
 20
3.146905
 30
0.0
 10
6.492913
 20
3.186917
 30
0.0
 10
6.404513
 20
3.259708
 30
0.0
  0
SPLINE
  5
112
100
AcDbEntity
  8
12x12_finial_cross
 62
7
100
AcDbSpline
 70
8
 71
3
 72
8
 73
4
 74
0
 40
0
 40
0
 40
0
 40
0
 40
1
 40
1
 40
1
 40
1
 10
6.404513
 20
3.259708
 30
0.0
 10
6.404513
 20
2.970731
 30
0.0
 10
6.250239
 20
2.703420
 30
0.0
 10
5.999995
 20
2.558936
 30
0.0
  0
SPLINE
  5
113
100
AcDbEntity
  8
12x12_finial_cross
 62
7
100
AcDbSpline
 70
8
 71
3
 72
8
 73
4
 74
0
 40
0
 40
0
 40
0
 40
0
 40
1
 40
1
 40
1
 40
1
 10
5.999995
 20
2.558936
 30
0.0
 10
5.749756
 20
2.703420
 30
0.0
 10
5.595483
 20
2.970731
 30
0.0
 10
5.595483
 20
3.259708
 30
0.0
  0
SPLINE
  5
114
100
AcDbEntity
  8
12x12_finial_cross
 62
7
100
AcDbSpline
 70
8
 71
3
 72
8
 73
4
 74
0
 40
0
 40
0
 40
0
 40
0
 40
1
 40
1
 40
1
 40
1
 10
5.595483
 20
3.259708
 30
0.0
 10
5.507083
 20
3.186917
 30
0.0
 10
5.396234
 20
3.146905
 30
0.0
 10
5.281723
 20
3.146905
 30
0.0
  0
SPLINE
  5
115
100
AcDbEntity
  8
12x12_finial_cross
 62
7
100
AcDbSpline
 70
8
 71
3
 72
8
 73
4
 74
0
 40
0
 40
0
 40
0
 40
0
 40
1
 40
1
 40
1
 40
1
 10
5.281723
 20
3.146905
 30
0.0
 10
5.008967
 20
3.146905
 30
0.0
 10
4.787754
 20
3.368123
 30
0.0
 10
4.787754
 20
3.640876
 30
0.0
  0
SPLINE
  5
116
100
AcDbEntity
  8
12x12_finial_cross
 62
7
100
AcDbSpline
 70
8
 71
3
 72
8
 73
4
 74
0
 40
0
 40
0
 40
0
 40
0
 40
1
 40
1
 40
1
 40
1
 10
4.787754
 20
3.640876
 30
0.0
 10
4.787754
 20
3.788486
 30
0.0
 10
4.854011
 20
3.928241
 30
0.0
 10
4.967968
 20
4.022057
 30
0.0
  0
SPLINE
  5
117
100
AcDbEntity
  8
12x12_finial_cross
 62
7
100
AcDbSpline
 70
8
 71
3
 72
8
 73
4
 74
0
 40
0
 40
0
 40
0
 40
0
 40
1
 40
1
 40
1
 40
1
 10
4.967968
 20
4.022057
 30
0.0
 10
4.967968
 20
3.873148
 30
0.0
 10
5.088088
 20
3.752379
 30
0.0
 10
5.236997
 20
3.752379
 30
0.0
  0
SPLINE
  5
118
100
AcDbEntity
  8
12x12_finial_cross
 62
7
100
AcDbSpline
 70
8
 71
3
 72
8
 73
4
 74
0
 40
0
 40
0
 40
0
 40
0
 40
1
 40
1
 40
1
 40
1
 10
5.236997
 20
3.752379
 30
0.0
 10
5.385891
 20
3.752379
 30
0.0
 10
5.506670
 20
3.873148
 30
0.0
 10
5.506671
 20
4.022057
 30
0.0
  0
LWPOLYLINE
  5
119
100
AcDbEntity
  8
12x12_finial_cross
 62
7
100
AcDbPolyline
 90
3
 70
0
 10
7.931160
 20
5.459892
 30
0.0
 10
6.492671
 20
5.459887
 30
0.0
 10
6.492676
 20
4.022057
 30
0.0
  0
SPLINE
  5
11a
100
AcDbEntity
  8
12x12_finial_cross
 62
7
100
AcDbSpline
 70
8
 71
3
 72
8
 73
4
 74
0
 40
0
 40
0
 40
0
 40
0
 40
1
 40
1
 40
1
 40
1
 10
4.068835
 20
5.459892
 30
0.0
 10
3.919926
 20
5.459892
 30
0.0
 10
3.799157
 20
5.339113
 30
0.0
 10
3.799157
 20
5.190218
 30
0.0
  0
SPLINE
  5
11b
100
AcDbEntity
  8
12x12_finial_cross
 62
7
100
AcDbSpline
 70
8
 71
3
 72
8
 73
4
 74
0
 40
0
 40
0
 40
0
 40
0
 40
1
 40
1
 40
1
 40
1
 10
3.799157
 20
5.190218
 30
0.0
 10
3.799157
 20
5.041309
 30
0.0
 10
3.919926
 20
4.921190
 30
0.0
 10
4.068835
 20
4.921190
 30
0.0
  0
SPLINE
  5
11c
100
AcDbEntity
  8
12x12_finial_cross
 62
7
100
AcDbSpline
 70
8
 71
3
 72
8
 73
4
 74
0
 40
0
 40
0
 40
0
 40
0
 40
1
 40
1
 40
1
 40
1
 10
4.068835
 20
4.921190
 30
0.0
 10
3.975019
 20
4.807233
 30
0.0
 10
3.835264
 20
4.740975
 30
0.0
 10
3.687654
 20
4.740975
 30
0.0
  0
SPLINE
  5
11d
100
AcDbEntity
  8
12x12_finial_cross
 62
7
100
AcDbSpline
 70
8
 71
3
 72
8
 73
4
 74
0
 40
0
 40
0
 40
0
 40
0
 40
1
 40
1
 40
1
 40
1
 10
3.687654
 20
4.740975
 30
0.0
 10
3.414902
 20
4.740975
 30
0.0
 10
3.193683
 20
4.962188
 30
0.0
 10
3.193683
 20
5.234945
 30
0.0
  0
SPLINE
  5
11e
100
AcDbEntity
  8
12x12_finial_cross
 62
7
100
AcDbSpline
 70
8
 71
3
 72
8
 73
4
 74
0
 40
0
 40
0
 40
0
 40
0
 40
1
 40
1
 40
1
 40
1
 10
3.193683
 20
5.234945
 30
0.0
 10
3.193683
 20
5.349456
 30
0.0
 10
3.233696
 20
5.460305
 30
0.0
 10
3.306486
 20
5.548705
 30
0.0
  0
SPLINE
  5
11f
100
AcDbEntity
  8
12x12_finial_cross
 62
7
100
AcDbSpline
 70
8
 71
3
 72
8
 73
4
 74
0
 40
0
 40
0
 40
0
 40
0
 40
1
 40
1
 40
1
 40
1
 10
3.306486
 20
5.548705
 30
0.0
 10
3.017510
 20
5.548705
 30
0.0
 10
2.750198
 20
5.702978
 30
0.0
 10
2.605714
 20
5.953216
 30
0.0
  0
SPLINE
  5
120
100
AcDbEntity
  8
12x12_finial_cross
 62
7
100
AcDbSpline
 70
8
 71
3
 72
8
 73
4
 74
0
 40
0
 40
0
 40
0
 40
0
 40
1
 40
1
 40
1
 40
1
 10
2.605714
 20
5.953216
 30
0.0
 10
2.750198
 20
6.203461
 30
0.0
 10
3.017510
 20
6.357734
 30
0.0
 10
3.306486
 20
6.357734
 30
0.0
  0
SPLINE
  5
121
100
AcDbEntity
  8
12x12_finial_cross
 62
7
100
AcDbSpline
 70
8
 71
3
 72
8
 73
4
 74
0
 40
0
 40
0
 40
0
 40
0
 40
1
 40
1
 40
1
 40
1
 10
3.306486
 20
6.357734
 30
0.0
 10
3.233696
 20
6.446134
 30
0.0
 10
3.193683
 20
6.556983
 30
0.0
 10
3.193683
 20
6.671490
 30
0.0
  0
SPLINE
  5
122
100
AcDbEntity
  8
12x12_finial_cross
 62
7
100
AcDbSpline
 70
8
 71
3
 72
8
 73
4
 74
0
 40
0
 40
0
 40
0
 40
0
 40
1
 40
1
 40
1
 40
1
 10
3.193683
 20
6.671490
 30
0.0
 10
3.193683
 20
6.944251
 30
0.0
 10
3.414902
 20
7.165463
 30
0.0
 10
3.687654
 20
7.165463
 30
0.0
  0
SPLINE
  5
123
100
AcDbEntity
  8
12x12_finial_cross
 62
7
100
AcDbSpline
 70
8
 71
3
 72
8
 73
4
 74
0
 40
0
 40
0
 40
0
 40
0
 40
1
 40
1
 40
1
 40
1
 10
3.687654
 20
7.165463
 30
0.0
 10
3.835264
 20
7.165463
 30
0.0
 10
3.975019
 20
7.099202
 30
0.0
 10
4.068835
 20
6.985250
 30
0.0
  0
SPLINE
  5
124
100
AcDbEntity
  8
12x12_finial_cross
 62
7
100
AcDbSpline
 70
8
 71
3
 72
8
 73
4
 74
0
 40
0
 40
0
 40
0
 40
0
 40
1
 40
1
 40
1
 40
1
 10
4.068835
 20
6.985250
 30
0.0
 10
3.919926
 20
6.985250
 30
0.0
 10
3.799157
 20
6.864480
 30
0.0
 10
3.799157
 20
6.715571
 30
0.0
  0
SPLINE
  5
125
100
AcDbEntity
  8
12x12_finial_cross
 62
7
100
AcDbSpline
 70
8
 71
3
 72
8
 73
4
 74
0
 40
0
 40
0
 40
0
 40
0
 40
1
 40
1
 40
1
 40
1
 10
3.799157
 20
6.715571
 30
0.0
 10
3.799157
 20
6.566681
 30
0.0
 10
3.919926
 20
6.445898
 30
0.0
 10
4.068835
 20
6.445898
 30
0.0
  0
LWPOLYLINE
  5
126
100
AcDbEntity
  8
12x12_finial_cross
 62
7
100
AcDbPolyline
 90
3
 70
0
 10
5.506671
 20
4.022057
 30
0.0
 10
5.506673
 20
5.459887
 30
0.0
 10
4.068835
 20
5.459892
 30
0.0
  0
SPLINE
  5
127
100
AcDbEntity
  8
12x12_finial_cross
 62
7
100
AcDbSpline
 70
8
 71
3
 72
8
 73
4
 74
0
 40
0
 40
0
 40
0
 40
0
 40
1
 40
1
 40
1
 40
1
 10
5.506671
 20
7.884382
 30
0.0
 10
5.506670
 20
8.033291
 30
0.0
 10
5.385891
 20
8.154060
 30
0.0
 10
5.236997
 20
8.154060
 30
0.0
  0
SPLINE
  5
128
100
AcDbEntity
  8
12x12_finial_cross
 62
7
100
AcDbSpline
 70
8
 71
3
 72
8
 73
4
 74
0
 40
0
 40
0
 40
0
 40
0
 40
1
 40
1
 40
1
 40
1
 10
5.236997
 20
8.154060
 30
0.0
 10
5.088088
 20
8.154060
 30
0.0
 10
4.967968
 20
8.033291
 30
0.0
 10
4.967968
 20
7.884382
 30
0.0
  0
SPLINE
  5
129
100
AcDbEntity
  8
12x12_finial_cross
 62
7
100
AcDbSpline
 70
8
 71
3
 72
8
 73
4
 74
0
 40
0
 40
0
 40
0
 40
0
 40
1
 40
1
 40
1
 40
1
 10
4.967968
 20
7.884382
 30
0.0
 10
4.854011
 20
7.978198
 30
0.0
 10
4.787754
 20
8.117953
 30
0.0
 10
4.787754
 20
8.265563
 30
0.0
  0
SPLINE
  5
12a
100
AcDbEntity
  8
12x12_finial_cross
 62
7
100
AcDbSpline
 70
8
 71
3
 72
8
 73
4
 74
0
 40
0
 40
0
 40
0
 40
0
 40
1
 40
1
 40
1
 40
1
 10
4.787754
 20
8.265563
 30
0.0
 10
4.787754
 20
8.538315
 30
0.0
 10
5.008967
 20
8.759534
 30
0.0
 10
5.281723
 20
8.759534
 30
0.0
  0
SPLINE
  5
12b
100
AcDbEntity
  8
12x12_finial_cross
 62
7
100
AcDbSpline
 70
8
 71
3
 72
8
 73
4
 74
0
 40
0
 40
0
 40
0
 40
0
 40
1
 40
1
 40
1
 40
1
 10
5.281723
 20
8.759534
 30
0.0
 10
5.396234
 20
8.759534
 30
0.0
 10
5.507083
 20
8.719521
 30
0.0
 10
5.595483
 20
8.646731
 30
0.0
  0
SPLINE
  5
12c
100
AcDbEntity
  8
12x12_finial_cross
 62
7
100
AcDbSpline
 70
8
 71
3
 72
8
 73
4
 74
0
 40
0
 40
0
 40
0
 40
0
 40
1
 40
1
 40
1
 40
1
 10
5.595483
 20
8.646731
 30
0.0
 10
5.595483
 20
8.935707
 30
0.0
 10
5.749756
 20
9.203019
 30
0.0
 10
5.999995
 20
9.347502
 30
0.0
  0
SPLINE
  5
12d
100
AcDbEntity
  8
12x12_finial_cross
 62
7
100
AcDbSpline
 70
8
 71
3
 72
8
 73
4
 74
0
 40
0
 40
0
 40
0
 40
0
 40
1
 40
1
 40
1
 40
1
 10
5.999995
 20
9.347502
 30
0.0
 10
6.250239
 20
9.203019
 30
0.0
 10
6.404513
 20
8.935707
 30
0.0
 10
6.404513
 20
8.646731
 30
0.0
  0
SPLINE
  5
12e
100
AcDbEntity
  8
12x12_finial_cross
 62
7
100
AcDbSpline
 70
8
 71
3
 72
8
 73
4
 74
0
 40
0
 40
0
 40
0
 40
0
 40
1
 40
1
 40
1
 40
1
 10
6.404513
 20
8.646731
 30
0.0
 10
6.492913
 20
8.719521
 30
0.0
 10
6.603762
 20
8.759534
 30
0.0
 10
6.718268
 20
8.759534
 30
0.0
  0
SPLINE
  5
12f
100
AcDbEntity
  8
12x12_finial_cross
 62
7
100
AcDbSpline
 70
8
 71
3
 72
8
 73
4
 74
0
 40
0
 40
0
 40
0
 40
0
 40
1
 40
1
 40
1
 40
1
 10
6.718268
 20
8.759534
 30
0.0
 10
6.991029
 20
8.759534
 30
0.0
 10
7.212242
 20
8.538315
 30
0.0
 10
7.212242
 20
8.265563
 30
0.0
  0
SPLINE
  5
130
100
AcDbEntity
  8
12x12_finial_cross
 62
7
100
AcDbSpline
 70
8
 71
3
 72
8
 73
4
 74
0
 40
0
 40
0
 40
0
 40
0
 40
1
 40
1
 40
1
 40
1
 10
7.212242
 20
8.265563
 30
0.0
 10
7.212242
 20
8.117953
 30
0.0
 10
7.145980
 20
7.978198
 30
0.0
 10
7.032028
 20
7.884382
 30
0.0
  0
SPLINE
  5
131
100
AcDbEntity
  8
12x12_finial_cross
 62
7
100
AcDbSpline
 70
8
 71
3
 72
8
 73
4
 74
0
 40
0
 40
0
 40
0
 40
0
 40
1
 40
1
 40
1
 40
1
 10
7.032028
 20
7.884382
 30
0.0
 10
7.032028
 20
8.033291
 30
0.0
 10
6.911259
 20
8.154060
 30
0.0
 10
6.762350
 20
8.154060
 30
0.0
  0
SPLINE
  5
132
100
AcDbEntity
  8
12x12_finial_cross
 62
7
100
AcDbSpline
 70
8
 71
3
 72
8
 73
4
 74
0
 40
0
 40
0
 40
0
 40
0
 40
1
 40
1
 40
1
 40
1
 10
6.762350
 20
8.154060
 30
0.0
 10
6.613460
 20
8.154060
 30
0.0
 10
6.492677
 20
8.033291
 30
0.0
 10
6.492676
 20
7.884382
 30
0.0
  0
LWPOLYLINE
  5
133
100
AcDbEntity
  8
12x12_finial_cross
 62
7
100
AcDbPolyline
 90
3
 70
0
 10
4.068835
 20
6.445898
 30
0.0
 10
5.506673
 20
6.445898
 30
0.0
 10
5.506671
 20
7.884382
 30
0.0
  0
LWPOLYLINE
  5
134
100
AcDbEntity
  8
12x12_finial_cross
 62
7
100
AcDbPolyline
 90
3
 70
0
 10
6.492676
 20
7.884382
 30
0.0
 10
6.492671
 20
6.445898
 30
0.0
 10
7.931160
 20
6.445898
 30
0.0
  0
ENDSEC
  0
SECTION
  2
OBJECTS
  0
DICTIONARY
  5
C
330
0
100
AcDbDictionary
  3
ACAD_GROUP
350
D
  3
ACAD_MLINESTYLE
350
17
  0
DICTIONARY
  5
D
330
C
100
AcDbDictionary
  0
DICTIONARY
  5
1A
330
C
100
AcDbDictionary
  0
DICTIONARY
  5
17
330
C
100
AcDbDictionary
  3
STANDARD
350
18
  0
DICTIONARY
  5
19
330
C
100
AcDbDictionary
  0
ENDSEC
  0
EOF
