  0
SECTION
  2
HEADER
  9
$ACADVER
  1
AC1014
  9
$HANDSEED
  5
FFFF
  9
$MEASUREMENT
 70
     1
  0
ENDSEC
  0
SECTION
  2
TABLES
  0
TABLE
  2
VPORT
  5
8
330
0
100
AcDbSymbolTable
 70
     4
  0
VPORT
  5
2E
330
8
100
AcDbSymbolTableRecord
100
AcDbViewportTableRecord
  2
*ACTIVE
 70
     0
 10
0.0
 20
0.0
 11
1.0
 21
1.0
 12
210.0
 22
148.5
 13
0.0
 23
0.0
 14
10.0
 24
10.0
 15
10.0
 25
10.0
 16
0.0
 26
0.0
 36
1.0
 17
0.0
 27
0.0
 37
0.0
 40
341.0
 41
1.24
 42
50.0
 43
0.0
 44
0.0
 50
0.0
 51
0.0
 71
     0
 72
   100
 73
     1
 74
     3
 75
     0
 76
     0
 77
     0
 78
     0
  0
ENDTAB
  0
TABLE
  2
LTYPE
  5
5
330
0
100
AcDbSymbolTable
 70
     1
  0
LTYPE
  5
14
330
5
100
AcDbSymbolTableRecord
100
AcDbLinetypeTableRecord
  2
BYBLOCK
 70
     0
  3

 72
    65
 73
     0
 40
0.0
  0
LTYPE
  5
15
330
5
100
AcDbSymbolTableRecord
100
AcDbLinetypeTableRecord
  2
BYLAYER
 70
     0
  3

 72
    65
 73
     0
 40
0.0
  0
LTYPE
  5
16
330
5
100
AcDbSymbolTableRecord
100
AcDbLinetypeTableRecord
  2
CONTINUOUS
 70
     0
  3
Solid line
 72
    65
 73
     0
 40
0.0
  0
ENDTAB
  0
TABLE
  2
LAYER
  5
2
100
AcDbSymbolTable
 70
2
  0
LAYER
  5
50
100
AcDbSymbolTableRecord
100
AcDbLayerTableRecord
  2
0
 70
0
  6
CONTINUOUS
  0
LAYER
  5
51
100
AcDbSymbolTableRecord
100
AcDbLayerTableRecord
  2
12x12_f_of_x
 70
0
  6
CONTINUOUS
  0
ENDTAB
  0
TABLE
  2
STYLE
  5
3
330
0
100
AcDbSymbolTable
 70
     1
  0
STYLE
  5
11
330
3
100
AcDbSymbolTableRecord
100
AcDbTextStyleTableRecord
  2
STANDARD
 70
     0
 40
0.0
 41
1.0
 50
0.0
 71
     0
 42
2.5
  3
txt
  4

  0
ENDTAB
  0
TABLE
  2
VIEW
  5
6
330
0
100
AcDbSymbolTable
 70
     0
  0
ENDTAB
  0
TABLE
  2
UCS
  5
7
330
0
100
AcDbSymbolTable
 70
     0
  0
ENDTAB
  0
TABLE
  2
APPID
  5
9
330
0
100
AcDbSymbolTable
 70
     2
  0
APPID
  5
12
330
9
100
AcDbSymbolTableRecord
100
AcDbRegAppTableRecord
  2
ACAD
 70
     0
  0
ENDTAB
  0
TABLE
  2
DIMSTYLE
  5
A
330
0
100
AcDbSymbolTable
 70
     1
  0
DIMSTYLE
105
27
330
A
100
AcDbSymbolTableRecord
100
AcDbDimStyleTableRecord
  2
ISO-25
 70
     0
  3

  4

  5

  6

  7

 40
1.0
 41
2.5
 42
0.625
 43
3.75
 44
1.25
 45
0.0
 46
0.0
 47
0.0
 48
0.0
140
2.5
141
2.5
142
0.0
143
0.03937007874016
144
1.0
145
0.0
146
1.0
147
0.625
 71
     0
 72
     0
 73
     0
 74
     0
 75
     0
 76
     0
 77
     1
 78
     8
170
     0
171
     3
172
     1
173
     0
174
     0
175
     0
176
     0
177
     0
178
     0
270
     2
271
     2
272
     2
273
     2
274
     3
340
11
275
     0
280
     0
281
     0
282
     0
283
     0
284
     8
285
     0
286
     0
287
     3
288
     0
  0
ENDTAB
  0
TABLE
  2
BLOCK_RECORD
  5
1
330
0
100
AcDbSymbolTable
 70
     1
  0
BLOCK_RECORD
  5
1F
330
1
100
AcDbSymbolTableRecord
100
AcDbBlockTableRecord
  2
*MODEL_SPACE
  0
BLOCK_RECORD
  5
1B
330
1
100
AcDbSymbolTableRecord
100
AcDbBlockTableRecord
  2
*PAPER_SPACE
  0
ENDTAB
  0
ENDSEC
  0
SECTION
  2
BLOCKS
  0
BLOCK
  5
20
330
1F
100
AcDbEntity
  8
0
100
AcDbBlockBegin
  2
*MODEL_SPACE
 70
     0
 10
0.0
 20
0.0
 30
0.0
  3
*MODEL_SPACE
  1

  0
ENDBLK
  5
21
330
1F
100
AcDbEntity
  8
0
100
AcDbBlockEnd
  0
BLOCK
  5
1C
330
1B
100
AcDbEntity
 67
     1
  8
0
100
AcDbBlockBegin
  2
*PAPER_SPACE
  1

  0
ENDBLK
  5
1D
330
1B
100
AcDbEntity
 67
     1
  8
0
100
AcDbBlockEnd
  0
ENDSEC
  0
SECTION
  2
ENTITIES
  0
LWPOLYLINE
  5
100
100
AcDbEntity
  8
12x12_f_of_x
 62
7
100
AcDbPolyline
 90
4
 70
1
 10
0.000000
 20
11.953216
 30
0.0
 10
12.000000
 20
11.953216
 30
0.0
 10
12.000000
 20
-0.046784
 30
0.0
 10
0.000000
 20
-0.046784
 30
0.0
  0
SPLINE
  5
101
100
AcDbEntity
  8
12x12_f_of_x
 62
7
100
AcDbSpline
 70
8
 71
3
 72
8
 73
4
 74
0
 40
0
 40
0
 40
0
 40
0
 40
1
 40
1
 40
1
 40
1
 10
3.471549
 20
5.709354
 30
0.0
 10
3.357212
 20
5.310784
 30
0.0
 10
3.248187
 20
5.001733
 30
0.0
 10
3.144223
 20
4.782320
 30
0.0
  0
SPLINE
  5
102
100
AcDbEntity
  8
12x12_f_of_x
 62
7
100
AcDbSpline
 70
8
 71
3
 72
8
 73
4
 74
0
 40
0
 40
0
 40
0
 40
0
 40
1
 40
1
 40
1
 40
1
 10
3.144223
 20
4.782320
 30
0.0
 10
2.996674
 20
4.472650
 30
0.0
 10
2.837887
 20
4.258796
 30
0.0
 10
2.667989
 20
4.140755
 30
0.0
  0
SPLINE
  5
103
100
AcDbEntity
  8
12x12_f_of_x
 62
7
100
AcDbSpline
 70
8
 71
3
 72
8
 73
4
 74
0
 40
0
 40
0
 40
0
 40
0
 40
1
 40
1
 40
1
 40
1
 10
2.667989
 20
4.140755
 30
0.0
 10
2.538836
 20
4.050497
 30
0.0
 10
2.409560
 20
4.005306
 30
0.0
 10
2.280284
 20
4.005306
 30
0.0
  0
SPLINE
  5
104
100
AcDbEntity
  8
12x12_f_of_x
 62
7
100
AcDbSpline
 70
8
 71
3
 72
8
 73
4
 74
0
 40
0
 40
0
 40
0
 40
0
 40
1
 40
1
 40
1
 40
1
 10
2.280284
 20
4.005306
 30
0.0
 10
2.196076
 20
4.005306
 30
0.0
 10
2.124337
 20
4.030618
 30
0.0
 10
2.065317
 20
4.081118
 30
0.0
  0
SPLINE
  5
105
100
AcDbEntity
  8
12x12_f_of_x
 62
7
100
AcDbSpline
 70
8
 71
3
 72
8
 73
4
 74
0
 40
0
 40
0
 40
0
 40
0
 40
1
 40
1
 40
1
 40
1
 10
2.065317
 20
4.081118
 30
0.0
 10
2.021855
 20
4.116309
 30
0.0
 10
2.000000
 20
4.161993
 30
0.0
 10
2.000000
 20
4.218174
 30
0.0
  0
SPLINE
  5
106
100
AcDbEntity
  8
12x12_f_of_x
 62
7
100
AcDbSpline
 70
8
 71
3
 72
8
 73
4
 74
0
 40
0
 40
0
 40
0
 40
0
 40
1
 40
1
 40
1
 40
1
 10
2.000000
 20
4.218174
 30
0.0
 10
2.000000
 20
4.263118
 30
0.0
 10
2.017780
 20
4.302135
 30
0.0
 10
2.052971
 20
4.335102
 30
0.0
  0
SPLINE
  5
107
100
AcDbEntity
  8
12x12_f_of_x
 62
7
100
AcDbSpline
 70
8
 71
3
 72
8
 73
4
 74
0
 40
0
 40
0
 40
0
 40
0
 40
1
 40
1
 40
1
 40
1
 10
2.052971
 20
4.335102
 30
0.0
 10
2.088407
 20
4.368193
 30
0.0
 10
2.131747
 20
4.384614
 30
0.0
 10
2.182988
 20
4.384614
 30
0.0
  0
SPLINE
  5
108
100
AcDbEntity
  8
12x12_f_of_x
 62
7
100
AcDbSpline
 70
8
 71
3
 72
8
 73
4
 74
0
 40
0
 40
0
 40
0
 40
0
 40
1
 40
1
 40
1
 40
1
 10
2.182988
 20
4.384614
 30
0.0
 10
2.220524
 20
4.384614
 30
0.0
 10
2.252009
 20
4.372761
 30
0.0
 10
2.277568
 20
4.348807
 30
0.0
  0
SPLINE
  5
109
100
AcDbEntity
  8
12x12_f_of_x
 62
7
100
AcDbSpline
 70
8
 71
3
 72
8
 73
4
 74
0
 40
0
 40
0
 40
0
 40
0
 40
1
 40
1
 40
1
 40
1
 10
2.277568
 20
4.348807
 30
0.0
 10
2.303374
 20
4.325101
 30
0.0
 10
2.316092
 20
4.297689
 30
0.0
 10
2.316092
 20
4.266821
 30
0.0
  0
SPLINE
  5
10a
100
AcDbEntity
  8
12x12_f_of_x
 62
7
100
AcDbSpline
 70
8
 71
3
 72
8
 73
4
 74
0
 40
0
 40
0
 40
0
 40
0
 40
1
 40
1
 40
1
 40
1
 10
2.316092
 20
4.266821
 30
0.0
 10
2.316092
 20
4.235954
 30
0.0
 10
2.302633
 20
4.207308
 30
0.0
 10
2.275716
 20
4.180638
 30
0.0
  0
SPLINE
  5
10b
100
AcDbEntity
  8
12x12_f_of_x
 62
7
100
AcDbSpline
 70
8
 71
3
 72
8
 73
4
 74
0
 40
0
 40
0
 40
0
 40
0
 40
1
 40
1
 40
1
 40
1
 10
2.275716
 20
4.180638
 30
0.0
 10
2.255219
 20
4.161006
 30
0.0
 10
2.244972
 20
4.146312
 30
0.0
 10
2.244972
 20
4.136434
 30
0.0
  0
SPLINE
  5
10c
100
AcDbEntity
  8
12x12_f_of_x
 62
7
100
AcDbSpline
 70
8
 71
3
 72
8
 73
4
 74
0
 40
0
 40
0
 40
0
 40
0
 40
1
 40
1
 40
1
 40
1
 10
2.244972
 20
4.136434
 30
0.0
 10
2.244972
 20
4.123840
 30
0.0
 10
2.249911
 20
4.113962
 30
0.0
 10
2.259542
 20
4.106924
 30
0.0
  0
SPLINE
  5
10d
100
AcDbEntity
  8
12x12_f_of_x
 62
7
100
AcDbSpline
 70
8
 71
3
 72
8
 73
4
 74
0
 40
0
 40
0
 40
0
 40
0
 40
1
 40
1
 40
1
 40
1
 10
2.259542
 20
4.106924
 30
0.0
 10
2.272013
 20
4.097170
 30
0.0
 10
2.291397
 20
4.092231
 30
0.0
 10
2.317574
 20
4.092231
 30
0.0
  0
SPLINE
  5
10e
100
AcDbEntity
  8
12x12_f_of_x
 62
7
100
AcDbSpline
 70
8
 71
3
 72
8
 73
4
 74
0
 40
0
 40
0
 40
0
 40
0
 40
1
 40
1
 40
1
 40
1
 10
2.317574
 20
4.092231
 30
0.0
 10
2.377088
 20
4.092231
 30
0.0
 10
2.439566
 20
4.111122
 30
0.0
 10
2.505130
 20
4.148657
 30
0.0
  0
SPLINE
  5
10f
100
AcDbEntity
  8
12x12_f_of_x
 62
7
100
AcDbSpline
 70
8
 71
3
 72
8
 73
4
 74
0
 40
0
 40
0
 40
0
 40
0
 40
1
 40
1
 40
1
 40
1
 10
2.505130
 20
4.148657
 30
0.0
 10
2.570941
 20
4.186316
 30
0.0
 10
2.629344
 20
4.242373
 30
0.0
 10
2.680337
 20
4.316827
 30
0.0
  0
SPLINE
  5
110
100
AcDbEntity
  8
12x12_f_of_x
 62
7
100
AcDbSpline
 70
8
 71
3
 72
8
 73
4
 74
0
 40
0
 40
0
 40
0
 40
0
 40
1
 40
1
 40
1
 40
1
 10
2.680337
 20
4.316827
 30
0.0
 10
2.731578
 20
4.391529
 30
0.0
 10
2.779856
 20
4.499073
 30
0.0
 10
2.825541
 20
4.639708
 30
0.0
  0
SPLINE
  5
111
100
AcDbEntity
  8
12x12_f_of_x
 62
7
100
AcDbSpline
 70
8
 71
3
 72
8
 73
4
 74
0
 40
0
 40
0
 40
0
 40
0
 40
1
 40
1
 40
1
 40
1
 10
2.825541
 20
4.639708
 30
0.0
 10
2.846038
 20
4.697864
 30
0.0
 10
2.900982
 20
4.889494
 30
0.0
 10
2.990500
 20
5.214474
 30
0.0
  0
LWPOLYLINE
  5
112
100
AcDbEntity
  8
12x12_f_of_x
 62
7
100
AcDbPolyline
 90
4
 70
0
 10
4.065947
 20
6.771105
 30
0.0
 10
4.028288
 20
6.636766
 30
0.0
 10
3.719605
 20
6.636766
 30
0.0
 10
3.471549
 20
5.709354
 30
0.0
  0
SPLINE
  5
113
100
AcDbEntity
  8
12x12_f_of_x
 62
7
100
AcDbSpline
 70
8
 71
3
 72
8
 73
4
 74
0
 40
0
 40
0
 40
0
 40
0
 40
1
 40
1
 40
1
 40
1
 10
3.015811
 20
6.771103
 30
0.0
 10
3.144100
 20
6.771103
 30
0.0
 10
3.233741
 20
6.779005
 30
0.0
 10
3.284858
 20
6.795056
 30
0.0
  0
SPLINE
  5
114
100
AcDbEntity
  8
12x12_f_of_x
 62
7
100
AcDbSpline
 70
8
 71
3
 72
8
 73
4
 74
0
 40
0
 40
0
 40
0
 40
0
 40
1
 40
1
 40
1
 40
1
 10
3.284858
 20
6.795056
 30
0.0
 10
3.335853
 20
6.811107
 30
0.0
 10
3.382648
 20
6.841729
 30
0.0
 10
3.425123
 20
6.887043
 30
0.0
  0
SPLINE
  5
115
100
AcDbEntity
  8
12x12_f_of_x
 62
7
100
AcDbSpline
 70
8
 71
3
 72
8
 73
4
 74
0
 40
0
 40
0
 40
0
 40
0
 40
1
 40
1
 40
1
 40
1
 10
3.425123
 20
6.887043
 30
0.0
 10
3.467597
 20
6.932235
 30
0.0
 10
3.518221
 20
7.016813
 30
0.0
 10
3.576995
 20
7.140780
 30
0.0
  0
SPLINE
  5
116
100
AcDbEntity
  8
12x12_f_of_x
 62
7
100
AcDbSpline
 70
8
 71
3
 72
8
 73
4
 74
0
 40
0
 40
0
 40
0
 40
0
 40
1
 40
1
 40
1
 40
1
 10
3.576995
 20
7.140780
 30
0.0
 10
3.655771
 20
7.307838
 30
0.0
 10
3.731089
 20
7.437361
 30
0.0
 10
3.803197
 20
7.529348
 30
0.0
  0
SPLINE
  5
117
100
AcDbEntity
  8
12x12_f_of_x
 62
7
100
AcDbSpline
 70
8
 71
3
 72
8
 73
4
 74
0
 40
0
 40
0
 40
0
 40
0
 40
1
 40
1
 40
1
 40
1
 10
3.803197
 20
7.529348
 30
0.0
 10
3.901852
 20
7.653191
 30
0.0
 10
4.005569
 20
7.746167
 30
0.0
 10
4.114348
 20
7.808149
 30
0.0
  0
SPLINE
  5
118
100
AcDbEntity
  8
12x12_f_of_x
 62
7
100
AcDbSpline
 70
8
 71
3
 72
8
 73
4
 74
0
 40
0
 40
0
 40
0
 40
0
 40
1
 40
1
 40
1
 40
1
 10
4.114348
 20
7.808149
 30
0.0
 10
4.223127
 20
7.870131
 30
0.0
 10
4.325610
 20
7.901124
 30
0.0
 10
4.421672
 20
7.901124
 30
0.0
  0
SPLINE
  5
119
100
AcDbEntity
  8
12x12_f_of_x
 62
7
100
AcDbSpline
 70
8
 71
3
 72
8
 73
4
 74
0
 40
0
 40
0
 40
0
 40
0
 40
1
 40
1
 40
1
 40
1
 10
4.421672
 20
7.901124
 30
0.0
 10
4.523043
 20
7.901124
 30
0.0
 10
4.604411
 20
7.874330
 30
0.0
 10
4.665777
 20
7.820990
 30
0.0
  0
SPLINE
  5
11a
100
AcDbEntity
  8
12x12_f_of_x
 62
7
100
AcDbSpline
 70
8
 71
3
 72
8
 73
4
 74
0
 40
0
 40
0
 40
0
 40
0
 40
1
 40
1
 40
1
 40
1
 10
4.665777
 20
7.820990
 30
0.0
 10
4.727143
 20
7.767527
 30
0.0
 10
4.757887
 20
7.709617
 30
0.0
 10
4.757887
 20
7.647141
 30
0.0
  0
SPLINE
  5
11b
100
AcDbEntity
  8
12x12_f_of_x
 62
7
100
AcDbSpline
 70
8
 71
3
 72
8
 73
4
 74
0
 40
0
 40
0
 40
0
 40
0
 40
1
 40
1
 40
1
 40
1
 10
4.757887
 20
7.647141
 30
0.0
 10
4.757887
 20
7.598493
 30
0.0
 10
4.741836
 20
7.557622
 30
0.0
 10
4.709979
 20
7.524286
 30
0.0
  0
SPLINE
  5
11c
100
AcDbEntity
  8
12x12_f_of_x
 62
7
100
AcDbSpline
 70
8
 71
3
 72
8
 73
4
 74
0
 40
0
 40
0
 40
0
 40
0
 40
1
 40
1
 40
1
 40
1
 10
4.709979
 20
7.524286
 30
0.0
 10
4.678122
 20
7.490949
 30
0.0
 10
4.637253
 20
7.474402
 30
0.0
 10
4.587371
 20
7.474402
 30
0.0
  0
SPLINE
  5
11d
100
AcDbEntity
  8
12x12_f_of_x
 62
7
100
AcDbSpline
 70
8
 71
3
 72
8
 73
4
 74
0
 40
0
 40
0
 40
0
 40
0
 40
1
 40
1
 40
1
 40
1
 10
4.587371
 20
7.474402
 30
0.0
 10
4.544401
 20
7.474402
 30
0.0
 10
4.509336
 20
7.486873
 30
0.0
 10
4.482296
 20
7.511938
 30
0.0
  0
SPLINE
  5
11e
100
AcDbEntity
  8
12x12_f_of_x
 62
7
100
AcDbSpline
 70
8
 71
3
 72
8
 73
4
 74
0
 40
0
 40
0
 40
0
 40
0
 40
1
 40
1
 40
1
 40
1
 10
4.482296
 20
7.511938
 30
0.0
 10
4.455256
 20
7.536879
 30
0.0
 10
4.441797
 20
7.566760
 30
0.0
 10
4.441797
 20
7.601579
 30
0.0
  0
SPLINE
  5
11f
100
AcDbEntity
  8
12x12_f_of_x
 62
7
100
AcDbSpline
 70
8
 71
3
 72
8
 73
4
 74
0
 40
0
 40
0
 40
0
 40
0
 40
1
 40
1
 40
1
 40
1
 10
4.441797
 20
7.601579
 30
0.0
 10
4.441797
 20
7.623805
 30
0.0
 10
4.450934
 20
7.651215
 30
0.0
 10
4.469455
 20
7.683935
 30
0.0
  0
SPLINE
  5
120
100
AcDbEntity
  8
12x12_f_of_x
 62
7
100
AcDbSpline
 70
8
 71
3
 72
8
 73
4
 74
0
 40
0
 40
0
 40
0
 40
0
 40
1
 40
1
 40
1
 40
1
 10
4.469455
 20
7.683935
 30
0.0
 10
4.487853
 20
7.716532
 30
0.0
 10
4.497113
 20
7.738510
 30
0.0
 10
4.497113
 20
7.749623
 30
0.0
  0
SPLINE
  5
121
100
AcDbEntity
  8
12x12_f_of_x
 62
7
100
AcDbSpline
 70
8
 71
3
 72
8
 73
4
 74
0
 40
0
 40
0
 40
0
 40
0
 40
1
 40
1
 40
1
 40
1
 10
4.497113
 20
7.749623
 30
0.0
 10
4.497113
 20
7.769009
 30
0.0
 10
4.491309
 20
7.783578
 30
0.0
 10
4.479951
 20
7.793332
 30
0.0
  0
SPLINE
  5
122
100
AcDbEntity
  8
12x12_f_of_x
 62
7
100
AcDbSpline
 70
8
 71
3
 72
8
 73
4
 74
0
 40
0
 40
0
 40
0
 40
0
 40
1
 40
1
 40
1
 40
1
 10
4.479951
 20
7.793332
 30
0.0
 10
4.463405
 20
7.807161
 30
0.0
 10
4.439205
 20
7.814199
 30
0.0
 10
4.407348
 20
7.814199
 30
0.0
  0
SPLINE
  5
123
100
AcDbEntity
  8
12x12_f_of_x
 62
7
100
AcDbSpline
 70
8
 71
3
 72
8
 73
4
 74
0
 40
0
 40
0
 40
0
 40
0
 40
1
 40
1
 40
1
 40
1
 10
4.407348
 20
7.814199
 30
0.0
 10
4.327091
 20
7.814199
 30
0.0
 10
4.255229
 20
7.785307
 30
0.0
 10
4.191517
 20
7.727644
 30
0.0
  0
SPLINE
  5
124
100
AcDbEntity
  8
12x12_f_of_x
 62
7
100
AcDbSpline
 70
8
 71
3
 72
8
 73
4
 74
0
 40
0
 40
0
 40
0
 40
0
 40
1
 40
1
 40
1
 40
1
 10
4.191517
 20
7.727644
 30
0.0
 10
4.106198
 20
7.651090
 30
0.0
 10
4.029890
 20
7.531445
 30
0.0
 10
3.962475
 20
7.368461
 30
0.0
  0
SPLINE
  5
125
100
AcDbEntity
  8
12x12_f_of_x
 62
7
100
AcDbSpline
 70
8
 71
3
 72
8
 73
4
 74
0
 40
0
 40
0
 40
0
 40
0
 40
1
 40
1
 40
1
 40
1
 10
3.962475
 20
7.368461
 30
0.0
 10
3.928026
 20
7.283265
 30
0.0
 10
3.860238
 20
7.084227
 30
0.0
 10
3.759115
 20
6.771100
 30
0.0
  0
LWPOLYLINE
  5
126
100
AcDbEntity
  8
12x12_f_of_x
 62
7
100
AcDbPolyline
 90
4
 70
0
 10
2.990500
 20
5.214474
 30
0.0
 10
3.388577
 20
6.636765
 30
0.0
 10
2.985931
 20
6.636765
 30
0.0
 10
3.015811
 20
6.771103
 30
0.0
  0
LWPOLYLINE
  5
127
100
AcDbEntity
  8
12x12_f_of_x
 62
7
100
AcDbPolyline
 90
3
 70
0
 10
3.759115
 20
6.771100
 30
0.0
 10
4.065947
 20
6.771100
 30
0.0
 10
4.065947
 20
6.771105
 30
0.0
  0
SPLINE
  5
128
100
AcDbEntity
  8
12x12_f_of_x
 62
7
100
AcDbSpline
 70
8
 71
3
 72
8
 73
4
 74
0
 40
0
 40
0
 40
0
 40
0
 40
1
 40
1
 40
1
 40
1
 10
6.336132
 20
4.021112
 30
0.0
 10
6.124252
 20
4.126805
 30
0.0
 10
5.947439
 20
4.250647
 30
0.0
 10
5.805816
 20
4.392395
 30
0.0
  0
SPLINE
  5
129
100
AcDbEntity
  8
12x12_f_of_x
 62
7
100
AcDbSpline
 70
8
 71
3
 72
8
 73
4
 74
0
 40
0
 40
0
 40
0
 40
0
 40
1
 40
1
 40
1
 40
1
 10
5.805816
 20
4.392395
 30
0.0
 10
5.603814
 20
4.594149
 30
0.0
 10
5.447993
 20
4.831958
 30
0.0
 10
5.338595
 20
5.105820
 30
0.0
  0
SPLINE
  5
12a
100
AcDbEntity
  8
12x12_f_of_x
 62
7
100
AcDbSpline
 70
8
 71
3
 72
8
 73
4
 74
0
 40
0
 40
0
 40
0
 40
0
 40
1
 40
1
 40
1
 40
1
 10
5.338595
 20
5.105820
 30
0.0
 10
5.229198
 20
5.379682
 30
0.0
 10
5.174500
 20
5.664163
 30
0.0
 10
5.174500
 20
5.959025
 30
0.0
  0
SPLINE
  5
12b
100
AcDbEntity
  8
12x12_f_of_x
 62
7
100
AcDbSpline
 70
8
 71
3
 72
8
 73
4
 74
0
 40
0
 40
0
 40
0
 40
0
 40
1
 40
1
 40
1
 40
1
 10
5.174500
 20
5.959025
 30
0.0
 10
5.174500
 20
6.390067
 30
0.0
 10
5.281799
 20
6.783329
 30
0.0
 10
5.496394
 20
7.138683
 30
0.0
  0
SPLINE
  5
12c
100
AcDbEntity
  8
12x12_f_of_x
 62
7
100
AcDbSpline
 70
8
 71
3
 72
8
 73
4
 74
0
 40
0
 40
0
 40
0
 40
0
 40
1
 40
1
 40
1
 40
1
 10
5.496394
 20
7.138683
 30
0.0
 10
5.710989
 20
7.494036
 30
0.0
 10
5.990903
 20
7.748144
 30
0.0
 10
6.336132
 20
7.901127
 30
0.0
  0
LWPOLYLINE
  5
12d
100
AcDbEntity
  8
12x12_f_of_x
 62
7
100
AcDbPolyline
 90
2
 70
0
 10
6.336132
 20
4.100134
 30
0.0
 10
6.336132
 20
4.021112
 30
0.0
  0
SPLINE
  5
12e
100
AcDbEntity
  8
12x12_f_of_x
 62
7
100
AcDbSpline
 70
8
 71
3
 72
8
 73
4
 74
0
 40
0
 40
0
 40
0
 40
0
 40
1
 40
1
 40
1
 40
1
 10
6.336132
 20
7.822104
 30
0.0
 10
6.162775
 20
7.727277
 30
0.0
 10
6.020535
 20
7.597755
 30
0.0
 10
5.909287
 20
7.433411
 30
0.0
  0
SPLINE
  5
12f
100
AcDbEntity
  8
12x12_f_of_x
 62
7
100
AcDbSpline
 70
8
 71
3
 72
8
 73
4
 74
0
 40
0
 40
0
 40
0
 40
0
 40
1
 40
1
 40
1
 40
1
 10
5.909287
 20
7.433411
 30
0.0
 10
5.797914
 20
7.268945
 30
0.0
 10
5.714817
 20
7.060648
 30
0.0
 10
5.659871
 20
6.808515
 30
0.0
  0
SPLINE
  5
130
100
AcDbEntity
  8
12x12_f_of_x
 62
7
100
AcDbSpline
 70
8
 71
3
 72
8
 73
4
 74
0
 40
0
 40
0
 40
0
 40
0
 40
1
 40
1
 40
1
 40
1
 10
5.659871
 20
6.808515
 30
0.0
 10
5.604925
 20
6.556383
 30
0.0
 10
5.577515
 20
6.293017
 30
0.0
 10
5.577515
 20
6.018536
 30
0.0
  0
SPLINE
  5
131
100
AcDbEntity
  8
12x12_f_of_x
 62
7
100
AcDbSpline
 70
8
 71
3
 72
8
 73
4
 74
0
 40
0
 40
0
 40
0
 40
0
 40
1
 40
1
 40
1
 40
1
 10
5.577515
 20
6.018536
 30
0.0
 10
5.577515
 20
5.720342
 30
0.0
 10
5.600729
 20
5.449320
 30
0.0
 10
5.647278
 20
5.205584
 30
0.0
  0
SPLINE
  5
132
100
AcDbEntity
  8
12x12_f_of_x
 62
7
100
AcDbSpline
 70
8
 71
3
 72
8
 73
4
 74
0
 40
0
 40
0
 40
0
 40
0
 40
1
 40
1
 40
1
 40
1
 10
5.647278
 20
5.205584
 30
0.0
 10
5.683826
 20
5.013336
 30
0.0
 10
5.728276
 20
4.859119
 30
0.0
 10
5.780382
 20
4.742684
 30
0.0
  0
SPLINE
  5
133
100
AcDbEntity
  8
12x12_f_of_x
 62
7
100
AcDbSpline
 70
8
 71
3
 72
8
 73
4
 74
0
 40
0
 40
0
 40
0
 40
0
 40
1
 40
1
 40
1
 40
1
 10
5.780382
 20
4.742684
 30
0.0
 10
5.832488
 20
4.626496
 30
0.0
 10
5.902497
 20
4.514630
 30
0.0
 10
5.990533
 20
4.407331
 30
0.0
  0
SPLINE
  5
134
100
AcDbEntity
  8
12x12_f_of_x
 62
7
100
AcDbSpline
 70
8
 71
3
 72
8
 73
4
 74
0
 40
0
 40
0
 40
0
 40
0
 40
1
 40
1
 40
1
 40
1
 10
5.990533
 20
4.407331
 30
0.0
 10
6.078569
 20
4.300159
 30
0.0
 10
6.193768
 20
4.197678
 30
0.0
 10
6.336132
 20
4.100134
 30
0.0
  0
LWPOLYLINE
  5
135
100
AcDbEntity
  8
12x12_f_of_x
 62
7
100
AcDbPolyline
 90
2
 70
0
 10
6.336132
 20
7.901127
 30
0.0
 10
6.336132
 20
7.822104
 30
0.0
  0
SPLINE
  5
136
100
AcDbEntity
  8
12x12_f_of_x
 62
7
100
AcDbSpline
 70
8
 71
3
 72
8
 73
4
 74
0
 40
0
 40
0
 40
0
 40
0
 40
1
 40
1
 40
1
 40
1
 10
7.383274
 20
6.818518
 30
0.0
 10
7.451061
 20
6.746657
 30
0.0
 10
7.502302
 20
6.674920
 30
0.0
 10
7.536998
 20
6.603182
 30
0.0
  0
SPLINE
  5
137
100
AcDbEntity
  8
12x12_f_of_x
 62
7
100
AcDbSpline
 70
8
 71
3
 72
8
 73
4
 74
0
 40
0
 40
0
 40
0
 40
0
 40
1
 40
1
 40
1
 40
1
 10
7.536998
 20
6.603182
 30
0.0
 10
7.561693
 20
6.552064
 30
0.0
 10
7.602438
 20
6.417725
 30
0.0
 10
7.658990
 20
6.200413
 30
0.0
  0
LWPOLYLINE
  5
138
100
AcDbEntity
  8
12x12_f_of_x
 62
7
100
AcDbPolyline
 90
1
 70
1
 10
6.336132
 20
4.100134
 30
0.0
  0
SPLINE
  5
139
100
AcDbEntity
  8
12x12_f_of_x
 62
7
100
AcDbSpline
 70
8
 71
3
 72
8
 73
4
 74
0
 40
0
 40
0
 40
0
 40
0
 40
1
 40
1
 40
1
 40
1
 10
7.841236
 20
6.478844
 30
0.0
 10
7.889514
 20
6.546260
 30
0.0
 10
7.948163
 20
6.610589
 30
0.0
 10
8.017185
 20
6.671832
 30
0.0
  0
SPLINE
  5
13a
100
AcDbEntity
  8
12x12_f_of_x
 62
7
100
AcDbSpline
 70
8
 71
3
 72
8
 73
4
 74
0
 40
0
 40
0
 40
0
 40
0
 40
1
 40
1
 40
1
 40
1
 10
8.017185
 20
6.671832
 30
0.0
 10
8.086206
 20
6.733074
 30
0.0
 10
8.146954
 20
6.774931
 30
0.0
 10
8.199555
 20
6.797403
 30
0.0
  0
SPLINE
  5
13b
100
AcDbEntity
  8
12x12_f_of_x
 62
7
100
AcDbSpline
 70
8
 71
3
 72
8
 73
4
 74
0
 40
0
 40
0
 40
0
 40
0
 40
1
 40
1
 40
1
 40
1
 10
8.199555
 20
6.797403
 30
0.0
 10
8.232646
 20
6.811479
 30
0.0
 10
8.269194
 20
6.818516
 30
0.0
 10
8.309198
 20
6.818516
 30
0.0
  0
SPLINE
  5
13c
100
AcDbEntity
  8
12x12_f_of_x
 62
7
100
AcDbSpline
 70
8
 71
3
 72
8
 73
4
 74
0
 40
0
 40
0
 40
0
 40
0
 40
1
 40
1
 40
1
 40
1
 10
8.309198
 20
6.818516
 30
0.0
 10
8.368589
 20
6.818516
 30
0.0
 10
8.415879
 20
6.802094
 30
0.0
 10
8.451069
 20
6.769497
 30
0.0
  0
SPLINE
  5
13d
100
AcDbEntity
  8
12x12_f_of_x
 62
7
100
AcDbSpline
 70
8
 71
3
 72
8
 73
4
 74
0
 40
0
 40
0
 40
0
 40
0
 40
1
 40
1
 40
1
 40
1
 10
8.451069
 20
6.769497
 30
0.0
 10
8.486260
 20
6.736900
 30
0.0
 10
8.503916
 20
6.697143
 30
0.0
 10
8.503916
 20
6.650469
 30
0.0
  0
SPLINE
  5
13e
100
AcDbEntity
  8
12x12_f_of_x
 62
7
100
AcDbSpline
 70
8
 71
3
 72
8
 73
4
 74
0
 40
0
 40
0
 40
0
 40
0
 40
1
 40
1
 40
1
 40
1
 10
8.503916
 20
6.650469
 30
0.0
 10
8.503916
 20
6.596511
 30
0.0
 10
8.493544
 20
6.559593
 30
0.0
 10
8.472925
 20
6.539837
 30
0.0
  0
SPLINE
  5
13f
100
AcDbEntity
  8
12x12_f_of_x
 62
7
100
AcDbSpline
 70
8
 71
3
 72
8
 73
4
 74
0
 40
0
 40
0
 40
0
 40
0
 40
1
 40
1
 40
1
 40
1
 10
8.472925
 20
6.539837
 30
0.0
 10
8.434402
 20
6.504277
 30
0.0
 10
8.390445
 20
6.486620
 30
0.0
 10
8.340932
 20
6.486620
 30
0.0
  0
SPLINE
  5
140
100
AcDbEntity
  8
12x12_f_of_x
 62
7
100
AcDbSpline
 70
8
 71
3
 72
8
 73
4
 74
0
 40
0
 40
0
 40
0
 40
0
 40
1
 40
1
 40
1
 40
1
 10
8.340932
 20
6.486620
 30
0.0
 10
8.312040
 20
6.486620
 30
0.0
 10
8.281171
 20
6.493165
 30
0.0
 10
8.248204
 20
6.506499
 30
0.0
  0
SPLINE
  5
141
100
AcDbEntity
  8
12x12_f_of_x
 62
7
100
AcDbSpline
 70
8
 71
3
 72
8
 73
4
 74
0
 40
0
 40
0
 40
0
 40
0
 40
1
 40
1
 40
1
 40
1
 10
8.248204
 20
6.506499
 30
0.0
 10
8.183504
 20
6.530083
 30
0.0
 10
8.140166
 20
6.541936
 30
0.0
 10
8.118187
 20
6.541936
 30
0.0
  0
SPLINE
  5
142
100
AcDbEntity
  8
12x12_f_of_x
 62
7
100
AcDbSpline
 70
8
 71
3
 72
8
 73
4
 74
0
 40
0
 40
0
 40
0
 40
0
 40
1
 40
1
 40
1
 40
1
 10
8.118187
 20
6.541936
 30
0.0
 10
8.085095
 20
6.541936
 30
0.0
 10
8.045955
 20
6.522304
 30
0.0
 10
8.000641
 20
6.483162
 30
0.0
  0
SPLINE
  5
143
100
AcDbEntity
  8
12x12_f_of_x
 62
7
100
AcDbSpline
 70
8
 71
3
 72
8
 73
4
 74
0
 40
0
 40
0
 40
0
 40
0
 40
1
 40
1
 40
1
 40
1
 10
8.000641
 20
6.483162
 30
0.0
 10
7.915445
 20
6.410436
 30
0.0
 10
7.813703
 20
6.269925
 30
0.0
 10
7.695416
 20
6.061749
 30
0.0
  0
LWPOLYLINE
  5
144
100
AcDbEntity
  8
12x12_f_of_x
 62
7
100
AcDbPolyline
 90
2
 70
0
 10
7.658990
 20
6.200413
 30
0.0
 10
7.841236
 20
6.478844
 30
0.0
  0
SPLINE
  5
145
100
AcDbEntity
  8
12x12_f_of_x
 62
7
100
AcDbSpline
 70
8
 71
3
 72
8
 73
4
 74
0
 40
0
 40
0
 40
0
 40
0
 40
1
 40
1
 40
1
 40
1
 10
7.865684
 20
5.349920
 30
0.0
 10
7.891367
 20
5.240523
 30
0.0
 10
7.912975
 20
5.175083
 30
0.0
 10
7.930508
 20
5.153598
 30
0.0
  0
SPLINE
  5
146
100
AcDbEntity
  8
12x12_f_of_x
 62
7
100
AcDbSpline
 70
8
 71
3
 72
8
 73
4
 74
0
 40
0
 40
0
 40
0
 40
0
 40
1
 40
1
 40
1
 40
1
 10
7.930508
 20
5.153598
 30
0.0
 10
7.948042
 20
5.132114
 30
0.0
 10
7.965575
 20
5.121371
 30
0.0
 10
7.983107
 20
5.121371
 30
0.0
  0
SPLINE
  5
147
100
AcDbEntity
  8
12x12_f_of_x
 62
7
100
AcDbSpline
 70
8
 71
3
 72
8
 73
4
 74
0
 40
0
 40
0
 40
0
 40
0
 40
1
 40
1
 40
1
 40
1
 10
7.983107
 20
5.121371
 30
0.0
 10
8.011506
 20
5.121371
 30
0.0
 10
8.044596
 20
5.137299
 30
0.0
 10
8.082380
 20
5.169155
 30
0.0
  0
SPLINE
  5
148
100
AcDbEntity
  8
12x12_f_of_x
 62
7
100
AcDbSpline
 70
8
 71
3
 72
8
 73
4
 74
0
 40
0
 40
0
 40
0
 40
0
 40
1
 40
1
 40
1
 40
1
 10
8.082380
 20
5.169155
 30
0.0
 10
8.156587
 20
5.232867
 30
0.0
 10
8.220052
 20
5.316088
 30
0.0
 10
8.272775
 20
5.418817
 30
0.0
  0
LWPOLYLINE
  5
149
100
AcDbEntity
  8
12x12_f_of_x
 62
7
100
AcDbPolyline
 90
2
 70
0
 10
7.695416
 20
6.061749
 30
0.0
 10
7.865684
 20
5.349920
 30
0.0
  0
SPLINE
  5
14a
100
AcDbEntity
  8
12x12_f_of_x
 62
7
100
AcDbSpline
 70
8
 71
3
 72
8
 73
4
 74
0
 40
0
 40
0
 40
0
 40
0
 40
1
 40
1
 40
1
 40
1
 10
8.345871
 20
5.381281
 30
0.0
 10
8.259440
 20
5.217679
 30
0.0
 10
8.149796
 20
5.081860
 30
0.0
 10
8.016817
 20
4.973820
 30
0.0
  0
SPLINE
  5
14b
100
AcDbEntity
  8
12x12_f_of_x
 62
7
100
AcDbSpline
 70
8
 71
3
 72
8
 73
4
 74
0
 40
0
 40
0
 40
0
 40
0
 40
1
 40
1
 40
1
 40
1
 10
8.016817
 20
4.973820
 30
0.0
 10
7.941375
 20
4.912948
 30
0.0
 10
7.877663
 20
4.882450
 30
0.0
 10
7.825557
 20
4.882450
 30
0.0
  0
SPLINE
  5
14c
100
AcDbEntity
  8
12x12_f_of_x
 62
7
100
AcDbSpline
 70
8
 71
3
 72
8
 73
4
 74
0
 40
0
 40
0
 40
0
 40
0
 40
1
 40
1
 40
1
 40
1
 10
7.825557
 20
4.882450
 30
0.0
 10
7.748756
 20
4.882450
 30
0.0
 10
7.687760
 20
4.925419
 30
0.0
 10
7.642571
 20
5.011231
 30
0.0
  0
SPLINE
  5
14d
100
AcDbEntity
  8
12x12_f_of_x
 62
7
100
AcDbSpline
 70
8
 71
3
 72
8
 73
4
 74
0
 40
0
 40
0
 40
0
 40
0
 40
1
 40
1
 40
1
 40
1
 10
7.642571
 20
5.011231
 30
0.0
 10
7.613678
 20
5.065313
 30
0.0
 10
7.554163
 20
5.298183
 30
0.0
 10
7.463782
 20
5.710088
 30
0.0
  0
SPLINE
  5
14e
100
AcDbEntity
  8
12x12_f_of_x
 62
7
100
AcDbSpline
 70
8
 71
3
 72
8
 73
4
 74
0
 40
0
 40
0
 40
0
 40
0
 40
1
 40
1
 40
1
 40
1
 10
7.463782
 20
5.710088
 30
0.0
 10
7.245729
 20
5.335224
 30
0.0
 10
7.071015
 20
5.093958
 30
0.0
 10
6.939640
 20
4.986167
 30
0.0
  0
SPLINE
  5
14f
100
AcDbEntity
  8
12x12_f_of_x
 62
7
100
AcDbSpline
 70
8
 71
3
 72
8
 73
4
 74
0
 40
0
 40
0
 40
0
 40
0
 40
1
 40
1
 40
1
 40
1
 10
6.939640
 20
4.986167
 30
0.0
 10
6.854321
 20
4.917022
 30
0.0
 10
6.771840
 20
4.882450
 30
0.0
 10
6.692200
 20
4.882450
 30
0.0
  0
SPLINE
  5
150
100
AcDbEntity
  8
12x12_f_of_x
 62
7
100
AcDbSpline
 70
8
 71
3
 72
8
 73
4
 74
0
 40
0
 40
0
 40
0
 40
0
 40
1
 40
1
 40
1
 40
1
 10
6.692200
 20
4.882450
 30
0.0
 10
6.636266
 20
4.882450
 30
0.0
 10
6.585396
 20
4.902452
 30
0.0
 10
6.539217
 20
4.942211
 30
0.0
  0
SPLINE
  5
151
100
AcDbEntity
  8
12x12_f_of_x
 62
7
100
AcDbSpline
 70
8
 71
3
 72
8
 73
4
 74
0
 40
0
 40
0
 40
0
 40
0
 40
1
 40
1
 40
1
 40
1
 10
6.539217
 20
4.942211
 30
0.0
 10
6.505632
 20
4.972340
 30
0.0
 10
6.488840
 20
5.012839
 30
0.0
 10
6.488840
 20
5.063709
 30
0.0
  0
SPLINE
  5
152
100
AcDbEntity
  8
12x12_f_of_x
 62
7
100
AcDbSpline
 70
8
 71
3
 72
8
 73
4
 74
0
 40
0
 40
0
 40
0
 40
0
 40
1
 40
1
 40
1
 40
1
 10
6.488840
 20
5.063709
 30
0.0
 10
6.488840
 20
5.108900
 30
0.0
 10
6.504151
 20
5.146682
 30
0.0
 10
6.534772
 20
5.176934
 30
0.0
  0
SPLINE
  5
153
100
AcDbEntity
  8
12x12_f_of_x
 62
7
100
AcDbSpline
 70
8
 71
3
 72
8
 73
4
 74
0
 40
0
 40
0
 40
0
 40
0
 40
1
 40
1
 40
1
 40
1
 10
6.534772
 20
5.176934
 30
0.0
 10
6.565394
 20
5.207062
 30
0.0
 10
6.603053
 20
5.222248
 30
0.0
 10
6.647503
 20
5.222248
 30
0.0
  0
SPLINE
  5
154
100
AcDbEntity
  8
12x12_f_of_x
 62
7
100
AcDbSpline
 70
8
 71
3
 72
8
 73
4
 74
0
 40
0
 40
0
 40
0
 40
0
 40
1
 40
1
 40
1
 40
1
 10
6.647503
 20
5.222248
 30
0.0
 10
6.691953
 20
5.222248
 30
0.0
 10
6.739367
 20
5.199160
 30
0.0
 10
6.789497
 20
5.153227
 30
0.0
  0
SPLINE
  5
155
100
AcDbEntity
  8
12x12_f_of_x
 62
7
100
AcDbSpline
 70
8
 71
3
 72
8
 73
4
 74
0
 40
0
 40
0
 40
0
 40
0
 40
1
 40
1
 40
1
 40
1
 10
6.789497
 20
5.153227
 30
0.0
 10
6.825675
 20
5.120135
 30
0.0
 10
6.853579
 20
5.103715
 30
0.0
 10
6.873089
 20
5.103715
 30
0.0
  0
SPLINE
  5
156
100
AcDbEntity
  8
12x12_f_of_x
 62
7
100
AcDbSpline
 70
8
 71
3
 72
8
 73
4
 74
0
 40
0
 40
0
 40
0
 40
0
 40
1
 40
1
 40
1
 40
1
 10
6.873089
 20
5.103715
 30
0.0
 10
6.889758
 20
5.103715
 30
0.0
 10
6.911365
 20
5.114703
 30
0.0
 10
6.937789
 20
5.136929
 30
0.0
  0
SPLINE
  5
157
100
AcDbEntity
  8
12x12_f_of_x
 62
7
100
AcDbSpline
 70
8
 71
3
 72
8
 73
4
 74
0
 40
0
 40
0
 40
0
 40
0
 40
1
 40
1
 40
1
 40
1
 10
6.937789
 20
5.136929
 30
0.0
 10
7.003229
 20
5.189528
 30
0.0
 10
7.092253
 20
5.303246
 30
0.0
 10
7.204985
 20
5.477837
 30
0.0
  0
SPLINE
  5
158
100
AcDbEntity
  8
12x12_f_of_x
 62
7
100
AcDbSpline
 70
8
 71
3
 72
8
 73
4
 74
0
 40
0
 40
0
 40
0
 40
0
 40
1
 40
1
 40
1
 40
1
 10
7.204985
 20
5.477837
 30
0.0
 10
7.317717
 20
5.652428
 30
0.0
 10
7.391552
 20
5.778493
 30
0.0
 10
7.426371
 20
5.856158
 30
0.0
  0
SPLINE
  5
159
100
AcDbEntity
  8
12x12_f_of_x
 62
7
100
AcDbSpline
 70
8
 71
3
 72
8
 73
4
 74
0
 40
0
 40
0
 40
0
 40
0
 40
1
 40
1
 40
1
 40
1
 10
7.426371
 20
5.856158
 30
0.0
 10
7.340311
 20
6.199173
 30
0.0
 10
7.293885
 20
6.380678
 30
0.0
 10
7.286971
 20
6.400557
 30
0.0
  0
SPLINE
  5
15a
100
AcDbEntity
  8
12x12_f_of_x
 62
7
100
AcDbSpline
 70
8
 71
3
 72
8
 73
4
 74
0
 40
0
 40
0
 40
0
 40
0
 40
1
 40
1
 40
1
 40
1
 10
7.286971
 20
6.400557
 30
0.0
 10
7.255238
 20
6.492297
 30
0.0
 10
7.213875
 20
6.557244
 30
0.0
 10
7.163003
 20
6.595396
 30
0.0
  0
SPLINE
  5
15b
100
AcDbEntity
  8
12x12_f_of_x
 62
7
100
AcDbSpline
 70
8
 71
3
 72
8
 73
4
 74
0
 40
0
 40
0
 40
0
 40
0
 40
1
 40
1
 40
1
 40
1
 10
7.163003
 20
6.595396
 30
0.0
 10
7.112132
 20
6.633427
 30
0.0
 10
7.037060
 20
6.652564
 30
0.0
 10
6.938036
 20
6.652564
 30
0.0
  0
SPLINE
  5
15c
100
AcDbEntity
  8
12x12_f_of_x
 62
7
100
AcDbSpline
 70
8
 71
3
 72
8
 73
4
 74
0
 40
0
 40
0
 40
0
 40
0
 40
1
 40
1
 40
1
 40
1
 10
6.938036
 20
6.652564
 30
0.0
 10
6.906427
 20
6.652564
 30
0.0
 10
6.869879
 20
6.651082
 30
0.0
 10
6.828638
 20
6.648367
 30
0.0
  0
LWPOLYLINE
  5
15d
100
AcDbEntity
  8
12x12_f_of_x
 62
7
100
AcDbPolyline
 90
2
 70
0
 10
8.272775
 20
5.418817
 30
0.0
 10
8.345871
 20
5.381281
 30
0.0
  0
LWPOLYLINE
  5
15e
100
AcDbEntity
  8
12x12_f_of_x
 62
7
100
AcDbPolyline
 90
3
 70
0
 10
6.828638
 20
6.648367
 30
0.0
 10
6.828638
 20
6.723685
 30
0.0
 10
7.383274
 20
6.818518
 30
0.0
  0
SPLINE
  5
15f
100
AcDbEntity
  8
12x12_f_of_x
 62
7
100
AcDbSpline
 70
8
 71
3
 72
8
 73
4
 74
0
 40
0
 40
0
 40
0
 40
0
 40
1
 40
1
 40
1
 40
1
 10
8.838368
 20
7.901127
 30
0.0
 10
9.051606
 20
7.796792
 30
0.0
 10
9.229037
 20
7.673691
 30
0.0
 10
9.370783
 20
7.531943
 30
0.0
  0
SPLINE
  5
160
100
AcDbEntity
  8
12x12_f_of_x
 62
7
100
AcDbSpline
 70
8
 71
3
 72
8
 73
4
 74
0
 40
0
 40
0
 40
0
 40
0
 40
1
 40
1
 40
1
 40
1
 10
9.370783
 20
7.531943
 30
0.0
 10
9.571302
 20
7.328830
 30
0.0
 10
9.726384
 20
7.090651
 30
0.0
 10
9.835781
 20
6.817407
 30
0.0
  0
SPLINE
  5
161
100
AcDbEntity
  8
12x12_f_of_x
 62
7
100
AcDbSpline
 70
8
 71
3
 72
8
 73
4
 74
0
 40
0
 40
0
 40
0
 40
0
 40
1
 40
1
 40
1
 40
1
 10
9.835781
 20
6.817407
 30
0.0
 10
9.945179
 20
6.544038
 30
0.0
 10
10.000000
 20
6.259310
 30
0.0
 10
10.000000
 20
5.963222
 30
0.0
  0
SPLINE
  5
162
100
AcDbEntity
  8
12x12_f_of_x
 62
7
100
AcDbSpline
 70
8
 71
3
 72
8
 73
4
 74
0
 40
0
 40
0
 40
0
 40
0
 40
1
 40
1
 40
1
 40
1
 10
10.000000
 20
5.963222
 30
0.0
 10
10.000000
 20
5.532048
 30
0.0
 10
9.892949
 20
5.138911
 30
0.0
 10
9.679094
 20
4.783556
 30
0.0
  0
SPLINE
  5
163
100
AcDbEntity
  8
12x12_f_of_x
 62
7
100
AcDbSpline
 70
8
 71
3
 72
8
 73
4
 74
0
 40
0
 40
0
 40
0
 40
0
 40
1
 40
1
 40
1
 40
1
 10
9.679094
 20
4.783556
 30
0.0
 10
9.465115
 20
4.428201
 30
0.0
 10
9.184833
 20
4.174095
 30
0.0
 10
8.838368
 20
4.021112
 30
0.0
  0
LWPOLYLINE
  5
164
100
AcDbEntity
  8
12x12_f_of_x
 62
7
100
AcDbPolyline
 90
2
 70
0
 10
8.838368
 20
7.822104
 30
0.0
 10
8.838368
 20
7.901127
 30
0.0
  0
SPLINE
  5
165
100
AcDbEntity
  8
12x12_f_of_x
 62
7
100
AcDbSpline
 70
8
 71
3
 72
8
 73
4
 74
0
 40
0
 40
0
 40
0
 40
0
 40
1
 40
1
 40
1
 40
1
 10
8.838368
 20
4.100134
 30
0.0
 10
9.011600
 20
4.196319
 30
0.0
 10
9.154212
 20
4.326213
 30
0.0
 10
9.266201
 20
4.489815
 30
0.0
  0
SPLINE
  5
166
100
AcDbEntity
  8
12x12_f_of_x
 62
7
100
AcDbSpline
 70
8
 71
3
 72
8
 73
4
 74
0
 40
0
 40
0
 40
0
 40
0
 40
1
 40
1
 40
1
 40
1
 10
9.266201
 20
4.489815
 30
0.0
 10
9.378190
 20
4.653664
 30
0.0
 10
9.461289
 20
4.861839
 30
0.0
 10
9.515617
 20
5.114711
 30
0.0
  0
SPLINE
  5
167
100
AcDbEntity
  8
12x12_f_of_x
 62
7
100
AcDbSpline
 70
8
 71
3
 72
8
 73
4
 74
0
 40
0
 40
0
 40
0
 40
0
 40
1
 40
1
 40
1
 40
1
 10
9.515617
 20
5.114711
 30
0.0
 10
9.569822
 20
5.367583
 30
0.0
 10
9.596985
 20
5.631198
 30
0.0
 10
9.596985
 20
5.905678
 30
0.0
  0
SPLINE
  5
168
100
AcDbEntity
  8
12x12_f_of_x
 62
7
100
AcDbSpline
 70
8
 71
3
 72
8
 73
4
 74
0
 40
0
 40
0
 40
0
 40
0
 40
1
 40
1
 40
1
 40
1
 10
9.596985
 20
5.905678
 30
0.0
 10
9.596985
 20
6.202514
 30
0.0
 10
9.573648
 20
6.473414
 30
0.0
 10
9.527222
 20
6.718630
 30
0.0
  0
SPLINE
  5
169
100
AcDbEntity
  8
12x12_f_of_x
 62
7
100
AcDbSpline
 70
8
 71
3
 72
8
 73
4
 74
0
 40
0
 40
0
 40
0
 40
0
 40
1
 40
1
 40
1
 40
1
 10
9.527222
 20
6.718630
 30
0.0
 10
9.491908
 20
6.910878
 30
0.0
 10
9.447953
 20
7.064849
 30
0.0
 10
9.395106
 20
7.180542
 30
0.0
  0
SPLINE
  5
16a
100
AcDbEntity
  8
12x12_f_of_x
 62
7
100
AcDbSpline
 70
8
 71
3
 72
8
 73
4
 74
0
 40
0
 40
0
 40
0
 40
0
 40
1
 40
1
 40
1
 40
1
 10
9.395106
 20
7.180542
 30
0.0
 10
9.342259
 20
7.296113
 30
0.0
 10
9.272251
 20
7.407609
 30
0.0
 10
9.184955
 20
7.514907
 30
0.0
  0
SPLINE
  5
16b
100
AcDbEntity
  8
12x12_f_of_x
 62
7
100
AcDbSpline
 70
8
 71
3
 72
8
 73
4
 74
0
 40
0
 40
0
 40
0
 40
0
 40
1
 40
1
 40
1
 40
1
 10
9.184955
 20
7.514907
 30
0.0
 10
9.097539
 20
7.622078
 30
0.0
 10
8.982091
 20
7.724561
 30
0.0
 10
8.838368
 20
7.822104
 30
0.0
  0
LWPOLYLINE
  5
16c
100
AcDbEntity
  8
12x12_f_of_x
 62
7
100
AcDbPolyline
 90
2
 70
0
 10
8.838368
 20
4.021112
 30
0.0
 10
8.838368
 20
4.100134
 30
0.0
  0
LWPOLYLINE
  5
16d
100
AcDbEntity
  8
12x12_f_of_x
 62
7
100
AcDbPolyline
 90
1
 70
1
 10
8.838368
 20
7.822104
 30
0.0
  0
ENDSEC
  0
SECTION
  2
OBJECTS
  0
DICTIONARY
  5
C
330
0
100
AcDbDictionary
  3
ACAD_GROUP
350
D
  3
ACAD_MLINESTYLE
350
17
  0
DICTIONARY
  5
D
330
C
100
AcDbDictionary
  0
DICTIONARY
  5
1A
330
C
100
AcDbDictionary
  0
DICTIONARY
  5
17
330
C
100
AcDbDictionary
  3
STANDARD
350
18
  0
DICTIONARY
  5
19
330
C
100
AcDbDictionary
  0
ENDSEC
  0
EOF
