<?xml version="1.0" encoding="UTF-8" standalone="no"?>
<!-- Created with Inkscape (http://www.inkscape.org/) -->

<svg
   xmlns:dc="http://purl.org/dc/elements/1.1/"
   xmlns:cc="http://creativecommons.org/ns#"
   xmlns:rdf="http://www.w3.org/1999/02/22-rdf-syntax-ns#"
   xmlns:svg="http://www.w3.org/2000/svg"
   xmlns="http://www.w3.org/2000/svg"
   xmlns:sodipodi="http://sodipodi.sourceforge.net/DTD/sodipodi-0.dtd"
   xmlns:inkscape="http://www.inkscape.org/namespaces/inkscape"
   width="48mm"
   height="48mm"
   viewBox="0 0 48 48"
   version="1.1"
   id="svg5013"
   inkscape:version="0.92.3 (2405546, 2018-03-11)"
   sodipodi:docname="mm3.svg">
  <sodipodi:namedview
     id="base"
     pagecolor="#ffffff"
     bordercolor="#666666"
     borderopacity="1.0"
     inkscape:pageopacity="0.0"
     inkscape:pageshadow="2"
     inkscape:zoom="0.75516493"
     inkscape:cx="-337.76368"
     inkscape:cy="288.0347"
     inkscape:document-units="mm"
     inkscape:current-layer="g5567"
     showgrid="false"
     fit-margin-top="0"
     fit-margin-left="0"
     fit-margin-right="0"
     fit-margin-bottom="0"
     inkscape:window-width="1362"
     inkscape:window-height="729"
     inkscape:window-x="0"
     inkscape:window-y="18"
     inkscape:window-maximized="0" />
  <defs
     id="defs5007" />
  <metadata
     id="metadata5010">
    <rdf:RDF>
      <cc:Work
         rdf:about="">
        <dc:format>image/svg+xml</dc:format>
        <dc:type
           rdf:resource="http://purl.org/dc/dcmitype/StillImage" />
        <dc:title></dc:title>
      </cc:Work>
    </rdf:RDF>
  </metadata>
  <g
     style="display:none"
     inkscape:label="material"
     inkscape:groupmode="layer"
     id="layer1"
     transform="translate(0,-249)">
    <path
       style="fill:#999999;stroke:none;stroke-width:17.62851524;stroke-miterlimit:4;stroke-dasharray:none"
       d="m 0,249 h 48 v 48 H 0 Z"
       id="rect5558"
       inkscape:connector-curvature="0" />
  </g>
  <g
     style="display:none"
     transform="translate(0,-249)"
     id="g5563"
     inkscape:groupmode="layer"
     inkscape:label="cutout">
    <path
       inkscape:connector-curvature="0"
       id="path5561"
       d="m 3,252 h 42 v 42 H 3 Z"
       style="fill:#ff7f2a;stroke:none;stroke-width:15.4249506;stroke-miterlimit:4;stroke-dasharray:none" />
  </g>
  <g
     style="display:inline"
     inkscape:label="squares"
     inkscape:groupmode="layer"
     id="g5567"
     transform="translate(0,-249)">
    <path
       style="fill:#ff0000;stroke:none;stroke-width:4.40712881;stroke-miterlimit:4;stroke-dasharray:none"
       d="M 4.5600005,253.56 H 16.56 v 12 H 4.5600005 Z"
       id="path5565"
       inkscape:connector-curvature="0"
       inkscape:tile-cx="9.9999997"
       inkscape:tile-cy="12"
       inkscape:tile-w="12"
       inkscape:tile-h="12"
       inkscape:tile-x0="3.9999999"
       inkscape:tile-y0="5.9999998" />
    <path
       inkscape:tile-y0="5.9999998"
       inkscape:tile-x0="3.9999999"
       inkscape:connector-curvature="0"
       id="use5571"
       d="M 4.5600005,267 H 16.56 v 12 H 4.5600005 Z"
       style="fill:#ff0000;stroke:none;stroke-width:4.40712881;stroke-miterlimit:4;stroke-dasharray:none" />
    <path
       inkscape:tile-y0="5.9999998"
       inkscape:tile-x0="3.9999999"
       inkscape:connector-curvature="0"
       id="use5573"
       d="M 4.5600005,280.44 H 16.56 v 12 H 4.5600005 Z"
       style="fill:#ff0000;stroke:none;stroke-width:4.40712881;stroke-miterlimit:4;stroke-dasharray:none" />
    <path
       inkscape:tile-y0="5.9999998"
       inkscape:tile-x0="3.9999999"
       inkscape:connector-curvature="0"
       id="use5575"
       d="m 18.000001,253.56 h 12 v 12 h -12 z"
       style="fill:#ff0000;stroke:none;stroke-width:4.40712881;stroke-miterlimit:4;stroke-dasharray:none" />
    <path
       inkscape:tile-y0="5.9999998"
       inkscape:tile-x0="3.9999999"
       inkscape:connector-curvature="0"
       id="use5577"
       d="m 18.000001,267 h 12 v 12 h -12 z"
       style="fill:#ff0000;stroke:none;stroke-width:4.40712881;stroke-miterlimit:4;stroke-dasharray:none" />
    <path
       inkscape:tile-y0="5.9999998"
       inkscape:tile-x0="3.9999999"
       inkscape:connector-curvature="0"
       id="use5579"
       d="m 18.000001,280.44 h 12 v 12 h -12 z"
       style="fill:#ff0000;stroke:none;stroke-width:4.40712881;stroke-miterlimit:4;stroke-dasharray:none" />
    <path
       inkscape:tile-y0="5.9999998"
       inkscape:tile-x0="3.9999999"
       inkscape:connector-curvature="0"
       id="use5581"
       d="m 31.439999,253.56 h 11.999999 v 12 H 31.439999 Z"
       style="fill:#ff0000;stroke:none;stroke-width:4.40712881;stroke-miterlimit:4;stroke-dasharray:none" />
    <path
       inkscape:tile-y0="5.9999998"
       inkscape:tile-x0="3.9999999"
       inkscape:connector-curvature="0"
       id="use5583"
       d="m 31.439999,267 h 11.999999 v 12 H 31.439999 Z"
       style="fill:#ff0000;stroke:none;stroke-width:4.40712881;stroke-miterlimit:4;stroke-dasharray:none" />
    <path
       inkscape:tile-y0="5.9999998"
       inkscape:tile-x0="3.9999999"
       inkscape:connector-curvature="0"
       id="use5585"
       d="m 31.439999,280.44 h 11.999999 v 12 H 31.439999 Z"
       style="fill:#ff0000;stroke:none;stroke-width:4.40712881;stroke-miterlimit:4;stroke-dasharray:none" />
    <g
       gcodetools="Gcodetools orientation group"
       transform="translate(0,249)"
       id="g5745">
      <g
         gcodetools="Gcodetools orientation point (2 points)"
         id="g5735">
        <path
           inkscape:connector-curvature="0"
           d="M 0,48 2.9375,41.65625 3.75,43.5625 10.593749,36.718751 v 0 l 0.6875,0.6875 -6.8437504,6.84375 1.90625,0.8125 z"
           gcodetools="Gcodetools orientation point arrow"
           style="fill:#000000;stroke:none"
           id="path5729" />
        <text
           gcodetools="Gcodetools orientation point text"
           style="font-style:normal;font-variant:normal;font-weight:normal;font-stretch:normal;font-size:10px;font-family:'DejaVu Sans';fill:#000000;fill-opacity:1;stroke:none"
           x="10"
           y="38"
           xml:space="preserve"
           id="text5733"><tspan
             x="10"
             y="38"
             sodipodi:role="line"
             id="tspan5731">(0.0; 0.0; 0.0)</tspan></text>
      </g>
      <g
         gcodetools="Gcodetools orientation point (2 points)"
         id="g5743">
        <path
           inkscape:connector-curvature="0"
           d="m 100,48 2.9375,-6.34375 0.8125,1.90625 6.84375,-6.843749 v 0 l 0.6875,0.6875 -6.84375,6.84375 1.90625,0.8125 z"
           gcodetools="Gcodetools orientation point arrow"
           style="fill:#000000;stroke:none"
           id="path5737" />
        <text
           gcodetools="Gcodetools orientation point text"
           style="font-style:normal;font-variant:normal;font-weight:normal;font-stretch:normal;font-size:10px;font-family:'DejaVu Sans';fill:#000000;fill-opacity:1;stroke:none"
           x="110"
           y="38"
           xml:space="preserve"
           id="text5741"><tspan
             x="110"
             y="38"
             sodipodi:role="line"
             id="tspan5739">(100.0; 0.0; -1.0)</tspan></text>
      </g>
    </g>
    <g
       id="g5885"
       transform="matrix(0.36241074,0,0,0.36241074,-175.7369,163.11555)"
       gcodetools="Gcodetools tool definition">
      <path
         id="path5799"
         d="M -20,-20 H 380 V 245 H -20 Z"
         style="fill:#00ff00;fill-opacity:0.5;stroke:#444444;stroke-width:1px"
         gcodetools="Gcodetools tool background"
         inkscape:connector-curvature="0" />
      <g
         id="g5809"
         gcodetools="Gcodetools tool parameter">
        <text
           id="text5803"
           xml:space="preserve"
           y="0"
           x="0"
           style="font-style:normal;font-variant:normal;font-weight:normal;font-stretch:normal;font-size:20px;font-family:'DejaVu Sans';fill:#000000;fill-opacity:1;stroke:none"
           gcodetools="Gcodetools tool definition field name"><tspan
             id="tspan5801"
             sodipodi:role="line"
             y="0"
             x="0">name</tspan></text>
        <text
           id="text5807"
           xml:space="preserve"
           y="0"
           x="150"
           style="font-style:normal;font-variant:normal;font-weight:normal;font-stretch:normal;font-size:20px;font-family:'DejaVu Sans';fill:#000000;fill-opacity:1;stroke:none"
           gcodetools="Gcodetools tool definition field value"><tspan
             id="tspan5805"
             sodipodi:role="line"
             y="0"
             x="150">Plasma cutter</tspan></text>
      </g>
      <g
         id="g5819"
         gcodetools="Gcodetools tool parameter">
        <text
           id="text5813"
           xml:space="preserve"
           y="20"
           x="0"
           style="font-style:normal;font-variant:normal;font-weight:normal;font-stretch:normal;font-size:10px;font-family:'DejaVu Sans';fill:#000000;fill-opacity:1;stroke:none"
           gcodetools="Gcodetools tool definition field name"><tspan
             id="tspan5811"
             sodipodi:role="line"
             y="20"
             x="0">id</tspan></text>
        <text
           id="text5817"
           xml:space="preserve"
           y="20"
           x="150"
           style="font-style:normal;font-variant:normal;font-weight:normal;font-stretch:normal;font-size:10px;font-family:'DejaVu Sans';fill:#000000;fill-opacity:1;stroke:none"
           gcodetools="Gcodetools tool definition field value"><tspan
             id="tspan5815"
             sodipodi:role="line"
             y="20"
             x="150">Plasma cutter 0001</tspan></text>
      </g>
      <g
         id="g5829"
         gcodetools="Gcodetools tool parameter">
        <text
           id="text5823"
           xml:space="preserve"
           y="35"
           x="0"
           style="font-style:normal;font-variant:normal;font-weight:normal;font-stretch:normal;font-size:10px;font-family:'DejaVu Sans';fill:#000000;fill-opacity:1;stroke:none"
           gcodetools="Gcodetools tool definition field name"><tspan
             id="tspan5821"
             sodipodi:role="line"
             y="35"
             x="0">diameter</tspan></text>
        <text
           id="text5827"
           xml:space="preserve"
           y="35"
           x="150"
           style="font-style:normal;font-variant:normal;font-weight:normal;font-stretch:normal;font-size:10px;font-family:'DejaVu Sans';fill:#000000;fill-opacity:1;stroke:none"
           gcodetools="Gcodetools tool definition field value"><tspan
             id="tspan5825"
             sodipodi:role="line"
             y="35"
             x="150">1</tspan></text>
      </g>
      <g
         id="g5839"
         gcodetools="Gcodetools tool parameter">
        <text
           id="text5833"
           xml:space="preserve"
           y="50"
           x="0"
           style="font-style:normal;font-variant:normal;font-weight:normal;font-stretch:normal;font-size:10px;font-family:'DejaVu Sans';fill:#000000;fill-opacity:1;stroke:none"
           gcodetools="Gcodetools tool definition field name"><tspan
             id="tspan5831"
             sodipodi:role="line"
             y="50"
             x="0">feed</tspan></text>
        <text
           id="text5837"
           xml:space="preserve"
           y="50"
           x="150"
           style="font-style:normal;font-variant:normal;font-weight:normal;font-stretch:normal;font-size:10px;font-family:'DejaVu Sans';fill:#000000;fill-opacity:1;stroke:none"
           gcodetools="Gcodetools tool definition field value"><tspan
             id="tspan5835"
             sodipodi:role="line"
             y="50"
             x="150">200</tspan></text>
      </g>
      <g
         id="g5849"
         gcodetools="Gcodetools tool parameter">
        <text
           id="text5843"
           xml:space="preserve"
           y="65"
           x="0"
           style="font-style:normal;font-variant:normal;font-weight:normal;font-stretch:normal;font-size:10px;font-family:'DejaVu Sans';fill:#000000;fill-opacity:1;stroke:none"
           gcodetools="Gcodetools tool definition field name"><tspan
             id="tspan5841"
             sodipodi:role="line"
             y="65"
             x="0">penetration feed</tspan></text>
        <text
           id="text5847"
           xml:space="preserve"
           y="65"
           x="150"
           style="font-style:normal;font-variant:normal;font-weight:normal;font-stretch:normal;font-size:10px;font-family:'DejaVu Sans';fill:#000000;fill-opacity:1;stroke:none"
           gcodetools="Gcodetools tool definition field value"><tspan
             id="tspan5845"
             sodipodi:role="line"
             y="65"
             x="150">100</tspan></text>
      </g>
      <g
         id="g5871"
         gcodetools="Gcodetools tool parameter">
        <text
           id="text5853"
           xml:space="preserve"
           y="80"
           x="0"
           style="font-style:normal;font-variant:normal;font-weight:normal;font-stretch:normal;font-size:10px;font-family:'DejaVu Sans';fill:#000000;fill-opacity:1;stroke:none"
           gcodetools="Gcodetools tool definition field name"><tspan
             id="tspan5851"
             sodipodi:role="line"
             y="80"
             x="0">gcode before path</tspan></text>
        <text
           id="text5869"
           xml:space="preserve"
           y="80"
           x="150"
           style="font-style:normal;font-variant:normal;font-weight:normal;font-stretch:normal;font-size:10px;font-family:'DejaVu Sans';fill:#000000;fill-opacity:1;stroke:none"
           gcodetools="Gcodetools tool definition field value"><tspan
             id="tspan5855"
             sodipodi:role="line"
             y="80"
             x="150">G31 Z-100 F500 (find metal)</tspan><tspan
             id="tspan5857"
             sodipodi:role="line"
             y="92.5"
             x="150">G92 Z0 (zero z)</tspan><tspan
             id="tspan5859"
             sodipodi:role="line"
             y="105"
             x="150">G00 Z10 F500 (going up)</tspan><tspan
             id="tspan5861"
             sodipodi:role="line"
             y="117.5"
             x="150">M03 (turn on plasma)</tspan><tspan
             id="tspan5863"
             sodipodi:role="line"
             y="130"
             x="150">G04 P0.2 (pause)</tspan><tspan
             id="tspan5865"
             sodipodi:role="line"
             y="142.5"
             x="150">G01 Z1 (going to cutting z)</tspan><tspan
             id="tspan5867"
             sodipodi:role="line"
             y="155"
             x="150" /></text>
      </g>
      <g
         id="g5883"
         gcodetools="Gcodetools tool parameter">
        <text
           id="text5875"
           xml:space="preserve"
           y="185"
           x="0"
           style="font-style:normal;font-variant:normal;font-weight:normal;font-stretch:normal;font-size:10px;font-family:'DejaVu Sans';fill:#000000;fill-opacity:1;stroke:none"
           gcodetools="Gcodetools tool definition field name"><tspan
             id="tspan5873"
             sodipodi:role="line"
             y="185"
             x="0">gcode after path</tspan></text>
        <text
           id="text5881"
           xml:space="preserve"
           y="185"
           x="150"
           style="font-style:normal;font-variant:normal;font-weight:normal;font-stretch:normal;font-size:10px;font-family:'DejaVu Sans';fill:#000000;fill-opacity:1;stroke:none"
           gcodetools="Gcodetools tool definition field value"><tspan
             id="tspan5877"
             sodipodi:role="line"
             y="185"
             x="150">M05 (turn off plasma)</tspan><tspan
             id="tspan5879"
             sodipodi:role="line"
             y="197.5"
             x="150" /></text>
      </g>
    </g>
  </g>
</svg>
