  0
SECTION
  2
HEADER
  9
$ACADVER
  1
AC1014
  9
$HANDSEED
  5
FFFF
  9
$MEASUREMENT
 70
     1
  0
ENDSEC
  0
SECTION
  2
TABLES
  0
TABLE
  2
VPORT
  5
8
330
0
100
AcDbSymbolTable
 70
     4
  0
VPORT
  5
2E
330
8
100
AcDbSymbolTableRecord
100
AcDbViewportTableRecord
  2
*ACTIVE
 70
     0
 10
0.0
 20
0.0
 11
1.0
 21
1.0
 12
210.0
 22
148.5
 13
0.0
 23
0.0
 14
10.0
 24
10.0
 15
10.0
 25
10.0
 16
0.0
 26
0.0
 36
1.0
 17
0.0
 27
0.0
 37
0.0
 40
341.0
 41
1.24
 42
50.0
 43
0.0
 44
0.0
 50
0.0
 51
0.0
 71
     0
 72
   100
 73
     1
 74
     3
 75
     0
 76
     0
 77
     0
 78
     0
  0
ENDTAB
  0
TABLE
  2
LTYPE
  5
5
330
0
100
AcDbSymbolTable
 70
     1
  0
LTYPE
  5
14
330
5
100
AcDbSymbolTableRecord
100
AcDbLinetypeTableRecord
  2
BYBLOCK
 70
     0
  3

 72
    65
 73
     0
 40
0.0
  0
LTYPE
  5
15
330
5
100
AcDbSymbolTableRecord
100
AcDbLinetypeTableRecord
  2
BYLAYER
 70
     0
  3

 72
    65
 73
     0
 40
0.0
  0
LTYPE
  5
16
330
5
100
AcDbSymbolTableRecord
100
AcDbLinetypeTableRecord
  2
CONTINUOUS
 70
     0
  3
Solid line
 72
    65
 73
     0
 40
0.0
  0
ENDTAB
  0
TABLE
  2
LAYER
  5
2
100
AcDbSymbolTable
 70
2
  0
LAYER
  5
50
100
AcDbSymbolTableRecord
100
AcDbLayerTableRecord
  2
0
 70
0
  6
CONTINUOUS
  0
LAYER
  5
51
100
AcDbSymbolTableRecord
100
AcDbLayerTableRecord
  2
12x12_Mx
 70
0
  6
CONTINUOUS
  0
ENDTAB
  0
TABLE
  2
STYLE
  5
3
330
0
100
AcDbSymbolTable
 70
     1
  0
STYLE
  5
11
330
3
100
AcDbSymbolTableRecord
100
AcDbTextStyleTableRecord
  2
STANDARD
 70
     0
 40
0.0
 41
1.0
 50
0.0
 71
     0
 42
2.5
  3
txt
  4

  0
ENDTAB
  0
TABLE
  2
VIEW
  5
6
330
0
100
AcDbSymbolTable
 70
     0
  0
ENDTAB
  0
TABLE
  2
UCS
  5
7
330
0
100
AcDbSymbolTable
 70
     0
  0
ENDTAB
  0
TABLE
  2
APPID
  5
9
330
0
100
AcDbSymbolTable
 70
     2
  0
APPID
  5
12
330
9
100
AcDbSymbolTableRecord
100
AcDbRegAppTableRecord
  2
ACAD
 70
     0
  0
ENDTAB
  0
TABLE
  2
DIMSTYLE
  5
A
330
0
100
AcDbSymbolTable
 70
     1
  0
DIMSTYLE
105
27
330
A
100
AcDbSymbolTableRecord
100
AcDbDimStyleTableRecord
  2
ISO-25
 70
     0
  3

  4

  5

  6

  7

 40
1.0
 41
2.5
 42
0.625
 43
3.75
 44
1.25
 45
0.0
 46
0.0
 47
0.0
 48
0.0
140
2.5
141
2.5
142
0.0
143
0.03937007874016
144
1.0
145
0.0
146
1.0
147
0.625
 71
     0
 72
     0
 73
     0
 74
     0
 75
     0
 76
     0
 77
     1
 78
     8
170
     0
171
     3
172
     1
173
     0
174
     0
175
     0
176
     0
177
     0
178
     0
270
     2
271
     2
272
     2
273
     2
274
     3
340
11
275
     0
280
     0
281
     0
282
     0
283
     0
284
     8
285
     0
286
     0
287
     3
288
     0
  0
ENDTAB
  0
TABLE
  2
BLOCK_RECORD
  5
1
330
0
100
AcDbSymbolTable
 70
     1
  0
BLOCK_RECORD
  5
1F
330
1
100
AcDbSymbolTableRecord
100
AcDbBlockTableRecord
  2
*MODEL_SPACE
  0
BLOCK_RECORD
  5
1B
330
1
100
AcDbSymbolTableRecord
100
AcDbBlockTableRecord
  2
*PAPER_SPACE
  0
ENDTAB
  0
ENDSEC
  0
SECTION
  2
BLOCKS
  0
BLOCK
  5
20
330
1F
100
AcDbEntity
  8
0
100
AcDbBlockBegin
  2
*MODEL_SPACE
 70
     0
 10
0.0
 20
0.0
 30
0.0
  3
*MODEL_SPACE
  1

  0
ENDBLK
  5
21
330
1F
100
AcDbEntity
  8
0
100
AcDbBlockEnd
  0
BLOCK
  5
1C
330
1B
100
AcDbEntity
 67
     1
  8
0
100
AcDbBlockBegin
  2
*PAPER_SPACE
  1

  0
ENDBLK
  5
1D
330
1B
100
AcDbEntity
 67
     1
  8
0
100
AcDbBlockEnd
  0
ENDSEC
  0
SECTION
  2
ENTITIES
  0
SPLINE
  5
100
100
AcDbEntity
  8
12x12_Mx
 62
7
100
AcDbSpline
 70
8
 71
3
 72
8
 73
4
 74
0
 40
0
 40
0
 40
0
 40
0
 40
1
 40
1
 40
1
 40
1
 10
4.811905
 20
9.517540
 30
0.0
 10
4.867946
 20
9.539102
 30
0.0
 10
4.928615
 20
9.530203
 30
0.0
 10
4.987148
 20
9.531321
 30
0.0
  0
SPLINE
  5
101
100
AcDbEntity
  8
12x12_Mx
 62
7
100
AcDbSpline
 70
8
 71
3
 72
8
 73
4
 74
0
 40
0
 40
0
 40
0
 40
0
 40
1
 40
1
 40
1
 40
1
 10
4.987148
 20
9.531321
 30
0.0
 10
5.005863
 20
9.454784
 30
0.0
 10
5.028849
 20
9.378756
 30
0.0
 10
5.042173
 20
9.301151
 30
0.0
  0
SPLINE
  5
102
100
AcDbEntity
  8
12x12_Mx
 62
7
100
AcDbSpline
 70
8
 71
3
 72
8
 73
4
 74
0
 40
0
 40
0
 40
0
 40
0
 40
1
 40
1
 40
1
 40
1
 10
5.042173
 20
9.301151
 30
0.0
 10
4.887118
 20
8.353873
 30
0.0
 10
4.723216
 20
7.404103
 30
0.0
 10
4.677498
 20
6.443705
 30
0.0
  0
SPLINE
  5
103
100
AcDbEntity
  8
12x12_Mx
 62
7
100
AcDbSpline
 70
8
 71
3
 72
8
 73
4
 74
0
 40
0
 40
0
 40
0
 40
0
 40
1
 40
1
 40
1
 40
1
 10
4.677498
 20
6.443705
 30
0.0
 10
4.668598
 20
6.082379
 30
0.0
 10
4.675006
 20
5.720850
 30
0.0
 10
4.673379
 20
5.359423
 30
0.0
  0
SPLINE
  5
104
100
AcDbEntity
  8
12x12_Mx
 62
7
100
AcDbSpline
 70
8
 71
3
 72
8
 73
4
 74
0
 40
0
 40
0
 40
0
 40
0
 40
1
 40
1
 40
1
 40
1
 10
4.673379
 20
5.359423
 30
0.0
 10
4.845418
 20
5.635566
 30
0.0
 10
4.995133
 20
5.924983
 30
0.0
 10
5.146220
 20
6.212924
 30
0.0
  0
SPLINE
  5
105
100
AcDbEntity
  8
12x12_Mx
 62
7
100
AcDbSpline
 70
8
 71
3
 72
8
 73
4
 74
0
 40
0
 40
0
 40
0
 40
0
 40
1
 40
1
 40
1
 40
1
 10
5.146220
 20
6.212924
 30
0.0
 10
5.672306
 20
7.234146
 30
0.0
 10
6.158268
 20
8.275607
 30
0.0
 10
6.646670
 20
9.314984
 30
0.0
  0
SPLINE
  5
106
100
AcDbEntity
  8
12x12_Mx
 62
7
100
AcDbSpline
 70
8
 71
3
 72
8
 73
4
 74
0
 40
0
 40
0
 40
0
 40
0
 40
1
 40
1
 40
1
 40
1
 10
6.646670
 20
9.314984
 30
0.0
 10
6.792825
 20
9.365941
 30
0.0
 10
6.945489
 20
9.408964
 30
0.0
 10
7.100340
 20
9.426306
 30
0.0
  0
SPLINE
  5
107
100
AcDbEntity
  8
12x12_Mx
 62
7
100
AcDbSpline
 70
8
 71
3
 72
8
 73
4
 74
0
 40
0
 40
0
 40
0
 40
0
 40
1
 40
1
 40
1
 40
1
 10
7.100340
 20
9.426306
 30
0.0
 10
7.207693
 20
9.444257
 30
0.0
 10
7.274312
 20
9.334054
 30
0.0
 10
7.310164
 20
9.250143
 30
0.0
  0
SPLINE
  5
108
100
AcDbEntity
  8
12x12_Mx
 62
7
100
AcDbSpline
 70
8
 71
3
 72
8
 73
4
 74
0
 40
0
 40
0
 40
0
 40
0
 40
1
 40
1
 40
1
 40
1
 10
7.310164
 20
9.250143
 30
0.0
 10
7.311486
 20
8.952133
 30
0.0
 10
7.312300
 20
8.653817
 30
0.0
 10
7.309350
 20
8.355704
 30
0.0
  0
SPLINE
  5
109
100
AcDbEntity
  8
12x12_Mx
 62
7
100
AcDbSpline
 70
8
 71
3
 72
8
 73
4
 74
0
 40
0
 40
0
 40
0
 40
0
 40
1
 40
1
 40
1
 40
1
 10
7.309350
 20
8.355704
 30
0.0
 10
7.297145
 20
8.266860
 30
0.0
 10
7.273600
 20
8.179745
 30
0.0
 10
7.259767
 20
8.091054
 30
0.0
  0
SPLINE
  5
10a
100
AcDbEntity
  8
12x12_Mx
 62
7
100
AcDbSpline
 70
8
 71
3
 72
8
 73
4
 74
0
 40
0
 40
0
 40
0
 40
0
 40
1
 40
1
 40
1
 40
1
 10
7.259767
 20
8.091054
 30
0.0
 10
7.253716
 20
7.235722
 30
0.0
 10
7.261446
 20
6.377135
 30
0.0
 10
7.371036
 20
5.527448
 30
0.0
  0
SPLINE
  5
10b
100
AcDbEntity
  8
12x12_Mx
 62
7
100
AcDbSpline
 70
8
 71
3
 72
8
 73
4
 74
0
 40
0
 40
0
 40
0
 40
0
 40
1
 40
1
 40
1
 40
1
 10
7.371036
 20
5.527448
 30
0.0
 10
7.439537
 20
5.036086
 30
0.0
 10
7.528226
 20
4.535825
 30
0.0
 10
7.755391
 20
4.089622
 30
0.0
  0
SPLINE
  5
10c
100
AcDbEntity
  8
12x12_Mx
 62
7
100
AcDbSpline
 70
8
 71
3
 72
8
 73
4
 74
0
 40
0
 40
0
 40
0
 40
0
 40
1
 40
1
 40
1
 40
1
 10
7.755391
 20
4.089622
 30
0.0
 10
8.127186
 20
4.291670
 30
0.0
 10
8.484283
 20
4.519297
 30
0.0
 10
8.843008
 20
4.743365
 30
0.0
  0
SPLINE
  5
10d
100
AcDbEntity
  8
12x12_Mx
 62
7
100
AcDbSpline
 70
8
 71
3
 72
8
 73
4
 74
0
 40
0
 40
0
 40
0
 40
0
 40
1
 40
1
 40
1
 40
1
 10
8.843008
 20
4.743365
 30
0.0
 10
9.072665
 20
4.889675
 30
0.0
 10
9.301712
 20
5.037561
 30
0.0
 10
9.521147
 20
5.198975
 30
0.0
  0
SPLINE
  5
10e
100
AcDbEntity
  8
12x12_Mx
 62
7
100
AcDbSpline
 70
8
 71
3
 72
8
 73
4
 74
0
 40
0
 40
0
 40
0
 40
0
 40
1
 40
1
 40
1
 40
1
 10
9.521147
 20
5.198975
 30
0.0
 10
9.542557
 20
5.211689
 30
0.0
 10
9.569408
 20
5.206299
 30
0.0
 10
9.593106
 20
5.205027
 30
0.0
  0
SPLINE
  5
10f
100
AcDbEntity
  8
12x12_Mx
 62
7
100
AcDbSpline
 70
8
 71
3
 72
8
 73
4
 74
0
 40
0
 40
0
 40
0
 40
0
 40
1
 40
1
 40
1
 40
1
 10
9.593106
 20
5.205027
 30
0.0
 10
9.740481
 20
5.159258
 30
0.0
 10
9.861311
 20
5.024542
 30
0.0
 10
9.869244
 20
4.866841
 30
0.0
  0
SPLINE
  5
110
100
AcDbEntity
  8
12x12_Mx
 62
7
100
AcDbSpline
 70
8
 71
3
 72
8
 73
4
 74
0
 40
0
 40
0
 40
0
 40
0
 40
1
 40
1
 40
1
 40
1
 10
9.869244
 20
4.866841
 30
0.0
 10
9.869447
 20
4.844363
 30
0.0
 10
9.880381
 20
4.812680
 30
0.0
 10
9.854598
 20
4.800017
 30
0.0
  0
SPLINE
  5
111
100
AcDbEntity
  8
12x12_Mx
 62
7
100
AcDbSpline
 70
8
 71
3
 72
8
 73
4
 74
0
 40
0
 40
0
 40
0
 40
0
 40
1
 40
1
 40
1
 40
1
 10
9.854598
 20
4.800017
 30
0.0
 10
9.403522
 20
4.488479
 30
0.0
 10
8.954531
 20
4.173991
 30
0.0
 10
8.502743
 20
3.863520
 30
0.0
  0
SPLINE
  5
112
100
AcDbEntity
  8
12x12_Mx
 62
7
100
AcDbSpline
 70
8
 71
3
 72
8
 73
4
 74
0
 40
0
 40
0
 40
0
 40
0
 40
1
 40
1
 40
1
 40
1
 10
8.502743
 20
3.863520
 30
0.0
 10
8.380236
 20
3.785204
 30
0.0
 10
8.257271
 20
3.707751
 30
0.0
 10
8.134661
 20
3.629638
 30
0.0
  0
SPLINE
  5
113
100
AcDbEntity
  8
12x12_Mx
 62
7
100
AcDbSpline
 70
8
 71
3
 72
8
 73
4
 74
0
 40
0
 40
0
 40
0
 40
0
 40
1
 40
1
 40
1
 40
1
 10
8.134661
 20
3.629638
 30
0.0
 10
8.295971
 20
3.480022
 30
0.0
 10
8.461094
 20
3.330966
 30
0.0
 10
8.657899
 20
3.228798
 30
0.0
  0
SPLINE
  5
114
100
AcDbEntity
  8
12x12_Mx
 62
7
100
AcDbSpline
 70
8
 71
3
 72
8
 73
4
 74
0
 40
0
 40
0
 40
0
 40
0
 40
1
 40
1
 40
1
 40
1
 10
8.657899
 20
3.228798
 30
0.0
 10
9.083701
 20
2.996390
 30
0.0
 10
9.541337
 20
2.829891
 30
0.0
 10
9.998769
 20
2.671935
 30
0.0
  0
SPLINE
  5
115
100
AcDbEntity
  8
12x12_Mx
 62
7
100
AcDbSpline
 70
8
 71
3
 72
8
 73
4
 74
0
 40
0
 40
0
 40
0
 40
0
 40
1
 40
1
 40
1
 40
1
 10
9.998769
 20
2.671935
 30
0.0
 10
10.000956
 20
2.618740
 30
0.0
 10
9.999481
 20
2.565444
 30
0.0
 10
9.999837
 20
2.512250
 30
0.0
  0
SPLINE
  5
116
100
AcDbEntity
  8
12x12_Mx
 62
7
100
AcDbSpline
 70
8
 71
3
 72
8
 73
4
 74
0
 40
0
 40
0
 40
0
 40
0
 40
1
 40
1
 40
1
 40
1
 10
9.999837
 20
2.512250
 30
0.0
 10
10.001668
 20
2.495925
 30
0.0
 10
9.987581
 20
2.480211
 30
0.0
 10
9.970901
 20
2.481889
 30
0.0
  0
SPLINE
  5
117
100
AcDbEntity
  8
12x12_Mx
 62
7
100
AcDbSpline
 70
8
 71
3
 72
8
 73
4
 74
0
 40
0
 40
0
 40
0
 40
0
 40
1
 40
1
 40
1
 40
1
 10
9.970901
 20
2.481889
 30
0.0
 10
9.569408
 20
2.476854
 30
0.0
 10
9.164915
 20
2.533710
 30
0.0
 10
8.786306
 20
2.670053
 30
0.0
  0
SPLINE
  5
118
100
AcDbEntity
  8
12x12_Mx
 62
7
100
AcDbSpline
 70
8
 71
3
 72
8
 73
4
 74
0
 40
0
 40
0
 40
0
 40
0
 40
1
 40
1
 40
1
 40
1
 10
8.786306
 20
2.670053
 30
0.0
 10
8.378659
 20
2.814583
 30
0.0
 10
8.007984
 20
3.054314
 30
0.0
 10
7.697367
 20
3.354156
 30
0.0
  0
SPLINE
  5
119
100
AcDbEntity
  8
12x12_Mx
 62
7
100
AcDbSpline
 70
8
 71
3
 72
8
 73
4
 74
0
 40
0
 40
0
 40
0
 40
0
 40
1
 40
1
 40
1
 40
1
 10
7.697367
 20
3.354156
 30
0.0
 10
7.311639
 20
3.093778
 30
0.0
 10
6.923622
 20
2.835179
 30
0.0
 10
6.514958
 20
2.611722
 30
0.0
  0
SPLINE
  5
11a
100
AcDbEntity
  8
12x12_Mx
 62
7
100
AcDbSpline
 70
8
 71
3
 72
8
 73
4
 74
0
 40
0
 40
0
 40
0
 40
0
 40
1
 40
1
 40
1
 40
1
 10
6.514958
 20
2.611722
 30
0.0
 10
6.358378
 20
2.528574
 30
0.0
 10
6.199612
 20
2.445477
 30
0.0
 10
6.028640
 20
2.396046
 30
0.0
  0
SPLINE
  5
11b
100
AcDbEntity
  8
12x12_Mx
 62
7
100
AcDbSpline
 70
8
 71
3
 72
8
 73
4
 74
0
 40
0
 40
0
 40
0
 40
0
 40
1
 40
1
 40
1
 40
1
 10
6.028640
 20
2.396046
 30
0.0
 10
5.928407
 20
2.364872
 30
0.0
 10
5.822478
 20
2.376365
 30
0.0
 10
5.719295
 20
2.375958
 30
0.0
  0
SPLINE
  5
11c
100
AcDbEntity
  8
12x12_Mx
 62
7
100
AcDbSpline
 70
8
 71
3
 72
8
 73
4
 74
0
 40
0
 40
0
 40
0
 40
0
 40
1
 40
1
 40
1
 40
1
 10
5.719295
 20
2.375958
 30
0.0
 10
5.651506
 20
2.375449
 30
0.0
 10
5.599991
 20
2.450817
 30
0.0
 10
5.621960
 20
2.513063
 30
0.0
  0
SPLINE
  5
11d
100
AcDbEntity
  8
12x12_Mx
 62
7
100
AcDbSpline
 70
8
 71
3
 72
8
 73
4
 74
0
 40
0
 40
0
 40
0
 40
0
 40
1
 40
1
 40
1
 40
1
 10
5.621960
 20
2.513063
 30
0.0
 10
5.677493
 20
2.585786
 30
0.0
 10
5.751536
 20
2.641676
 30
0.0
 10
5.820291
 20
2.701227
 30
0.0
  0
SPLINE
  5
11e
100
AcDbEntity
  8
12x12_Mx
 62
7
100
AcDbSpline
 70
8
 71
3
 72
8
 73
4
 74
0
 40
0
 40
0
 40
0
 40
0
 40
1
 40
1
 40
1
 40
1
 10
5.820291
 20
2.701227
 30
0.0
 10
6.299795
 20
3.088285
 30
0.0
 10
6.804725
 20
3.442339
 30
0.0
 10
7.305689
 20
3.800714
 30
0.0
  0
SPLINE
  5
11f
100
AcDbEntity
  8
12x12_Mx
 62
7
100
AcDbSpline
 70
8
 71
3
 72
8
 73
4
 74
0
 40
0
 40
0
 40
0
 40
0
 40
1
 40
1
 40
1
 40
1
 10
7.305689
 20
3.800714
 30
0.0
 10
7.146108
 20
4.033326
 30
0.0
 10
6.964203
 20
4.263242
 30
0.0
 10
6.894889
 20
4.542080
 30
0.0
  0
SPLINE
  5
120
100
AcDbEntity
  8
12x12_Mx
 62
7
100
AcDbSpline
 70
8
 71
3
 72
8
 73
4
 74
0
 40
0
 40
0
 40
0
 40
0
 40
1
 40
1
 40
1
 40
1
 10
6.894889
 20
4.542080
 30
0.0
 10
6.682980
 20
5.267121
 30
0.0
 10
6.622260
 20
6.025930
 30
0.0
 10
6.596884
 20
6.777670
 30
0.0
  0
SPLINE
  5
121
100
AcDbEntity
  8
12x12_Mx
 62
7
100
AcDbSpline
 70
8
 71
3
 72
8
 73
4
 74
0
 40
0
 40
0
 40
0
 40
0
 40
1
 40
1
 40
1
 40
1
 10
6.596884
 20
6.777670
 30
0.0
 10
6.584984
 20
7.156744
 30
0.0
 10
6.593324
 20
7.536072
 30
0.0
 10
6.589510
 20
7.915197
 30
0.0
  0
SPLINE
  5
122
100
AcDbEntity
  8
12x12_Mx
 62
7
100
AcDbSpline
 70
8
 71
3
 72
8
 73
4
 74
0
 40
0
 40
0
 40
0
 40
0
 40
1
 40
1
 40
1
 40
1
 10
6.589510
 20
7.915197
 30
0.0
 10
6.559201
 20
7.920537
 30
0.0
 10
6.555947
 20
7.884887
 30
0.0
 10
6.545318
 20
7.865054
 30
0.0
  0
SPLINE
  5
123
100
AcDbEntity
  8
12x12_Mx
 62
7
100
AcDbSpline
 70
8
 71
3
 72
8
 73
4
 74
0
 40
0
 40
0
 40
0
 40
0
 40
1
 40
1
 40
1
 40
1
 10
6.545318
 20
7.865054
 30
0.0
 10
5.978956
 20
6.578623
 30
0.0
 10
5.343941
 20
5.321028
 30
0.0
 10
4.614642
 20
4.118864
 30
0.0
  0
SPLINE
  5
124
100
AcDbEntity
  8
12x12_Mx
 62
7
100
AcDbSpline
 70
8
 71
3
 72
8
 73
4
 74
0
 40
0
 40
0
 40
0
 40
0
 40
1
 40
1
 40
1
 40
1
 10
4.614642
 20
4.118864
 30
0.0
 10
4.440111
 20
4.104370
 30
0.0
 10
4.279005
 20
4.189756
 30
0.0
 10
4.111695
 20
4.226575
 30
0.0
  0
SPLINE
  5
125
100
AcDbEntity
  8
12x12_Mx
 62
7
100
AcDbSpline
 70
8
 71
3
 72
8
 73
4
 74
0
 40
0
 40
0
 40
0
 40
0
 40
1
 40
1
 40
1
 40
1
 10
4.111695
 20
4.226575
 30
0.0
 10
4.109915
 20
5.002776
 30
0.0
 10
4.111492
 20
5.779029
 30
0.0
 10
4.110932
 20
6.555230
 30
0.0
  0
SPLINE
  5
126
100
AcDbEntity
  8
12x12_Mx
 62
7
100
AcDbSpline
 70
8
 71
3
 72
8
 73
4
 74
0
 40
0
 40
0
 40
0
 40
0
 40
1
 40
1
 40
1
 40
1
 10
4.110932
 20
6.555230
 30
0.0
 10
4.100863
 20
6.764600
 30
0.0
 10
4.138444
 20
6.971530
 30
0.0
 10
4.163210
 20
7.177951
 30
0.0
  0
SPLINE
  5
127
100
AcDbEntity
  8
12x12_Mx
 62
7
100
AcDbSpline
 70
8
 71
3
 72
8
 73
4
 74
0
 40
0
 40
0
 40
0
 40
0
 40
1
 40
1
 40
1
 40
1
 10
4.163210
 20
7.177951
 30
0.0
 10
4.133054
 20
7.182629
 30
0.0
 10
4.130613
 20
7.146827
 30
0.0
 10
4.120188
 20
7.127045
 30
0.0
  0
SPLINE
  5
128
100
AcDbEntity
  8
12x12_Mx
 62
7
100
AcDbSpline
 70
8
 71
3
 72
8
 73
4
 74
0
 40
0
 40
0
 40
0
 40
0
 40
1
 40
1
 40
1
 40
1
 10
4.120188
 20
7.127045
 30
0.0
 10
3.700591
 20
6.136031
 30
0.0
 10
3.151570
 20
5.201671
 30
0.0
 10
2.509181
 20
4.339066
 30
0.0
  0
SPLINE
  5
129
100
AcDbEntity
  8
12x12_Mx
 62
7
100
AcDbSpline
 70
8
 71
3
 72
8
 73
4
 74
0
 40
0
 40
0
 40
0
 40
0
 40
1
 40
1
 40
1
 40
1
 10
2.509181
 20
4.339066
 30
0.0
 10
2.388911
 20
4.253121
 30
0.0
 10
2.232128
 20
4.282210
 30
0.0
 10
2.093448
 20
4.276922
 30
0.0
  0
SPLINE
  5
12a
100
AcDbEntity
  8
12x12_Mx
 62
7
100
AcDbSpline
 70
8
 71
3
 72
8
 73
4
 74
0
 40
0
 40
0
 40
0
 40
0
 40
1
 40
1
 40
1
 40
1
 10
2.093448
 20
4.276922
 30
0.0
 10
2.064055
 20
4.281804
 30
0.0
 10
2.021185
 20
4.263089
 30
0.0
 10
2.002623
 20
4.293856
 30
0.0
  0
SPLINE
  5
12b
100
AcDbEntity
  8
12x12_Mx
 62
7
100
AcDbSpline
 70
8
 71
3
 72
8
 73
4
 74
0
 40
0
 40
0
 40
0
 40
0
 40
1
 40
1
 40
1
 40
1
 10
2.002623
 20
4.293856
 30
0.0
 10
1.997639
 20
4.350204
 30
0.0
 10
2.001352
 20
4.407314
 30
0.0
 10
2.001047
 20
4.463916
 30
0.0
  0
SPLINE
  5
12c
100
AcDbEntity
  8
12x12_Mx
 62
7
100
AcDbSpline
 70
8
 71
3
 72
8
 73
4
 74
0
 40
0
 40
0
 40
0
 40
0
 40
1
 40
1
 40
1
 40
1
 10
2.001047
 20
4.463916
 30
0.0
 10
2.052511
 20
4.477850
 30
0.0
 10
2.088719
 20
4.519399
 30
0.0
 10
2.123961
 20
4.556625
 30
0.0
  0
SPLINE
  5
12d
100
AcDbEntity
  8
12x12_Mx
 62
7
100
AcDbSpline
 70
8
 71
3
 72
8
 73
4
 74
0
 40
0
 40
0
 40
0
 40
0
 40
1
 40
1
 40
1
 40
1
 10
2.123961
 20
4.556625
 30
0.0
 10
2.225974
 20
4.672167
 30
0.0
 10
2.312477
 20
4.800271
 30
0.0
 10
2.398319
 20
4.928019
 30
0.0
  0
SPLINE
  5
12e
100
AcDbEntity
  8
12x12_Mx
 62
7
100
AcDbSpline
 70
8
 71
3
 72
8
 73
4
 74
0
 40
0
 40
0
 40
0
 40
0
 40
1
 40
1
 40
1
 40
1
 10
2.398319
 20
4.928019
 30
0.0
 10
2.661082
 20
5.327588
 30
0.0
 10
2.900249
 20
5.742006
 30
0.0
 10
3.137687
 20
6.156933
 30
0.0
  0
SPLINE
  5
12f
100
AcDbEntity
  8
12x12_Mx
 62
7
100
AcDbSpline
 70
8
 71
3
 72
8
 73
4
 74
0
 40
0
 40
0
 40
0
 40
0
 40
1
 40
1
 40
1
 40
1
 10
3.137687
 20
6.156933
 30
0.0
 10
3.162351
 20
6.197871
 30
0.0
 10
3.182387
 20
6.241302
 30
0.0
 10
3.203085
 20
6.284325
 30
0.0
  0
SPLINE
  5
130
100
AcDbEntity
  8
12x12_Mx
 62
7
100
AcDbSpline
 70
8
 71
3
 72
8
 73
4
 74
0
 40
0
 40
0
 40
0
 40
0
 40
1
 40
1
 40
1
 40
1
 10
3.203085
 20
6.284325
 30
0.0
 10
3.691081
 20
7.303003
 30
0.0
 10
4.098880
 20
8.357942
 30
0.0
 10
4.482269
 20
9.419644
 30
0.0
  0
SPLINE
  5
131
100
AcDbEntity
  8
12x12_Mx
 62
7
100
AcDbSpline
 70
8
 71
3
 72
8
 73
4
 74
0
 40
0
 40
0
 40
0
 40
0
 40
1
 40
1
 40
1
 40
1
 10
4.482269
 20
9.419644
 30
0.0
 10
4.587283
 20
9.460887
 30
0.0
 10
4.702874
 20
9.483263
 30
0.0
 10
4.811905
 20
9.517540
 30
0.0
  0
LWPOLYLINE
  5
132
100
AcDbEntity
  8
12x12_Mx
 62
7
100
AcDbPolyline
 90
4
 70
1
 10
0.000000
 20
11.953216
 30
0.0
 10
12.000000
 20
11.953216
 30
0.0
 10
12.000000
 20
-0.046784
 30
0.0
 10
0.000000
 20
-0.046784
 30
0.0
  0
LWPOLYLINE
  5
133
100
AcDbEntity
  8
12x12_Mx
 62
7
100
AcDbPolyline
 90
1
 70
1
 10
4.811905
 20
9.517540
 30
0.0
  0
ENDSEC
  0
SECTION
  2
OBJECTS
  0
DICTIONARY
  5
C
330
0
100
AcDbDictionary
  3
ACAD_GROUP
350
D
  3
ACAD_MLINESTYLE
350
17
  0
DICTIONARY
  5
D
330
C
100
AcDbDictionary
  0
DICTIONARY
  5
1A
330
C
100
AcDbDictionary
  0
DICTIONARY
  5
17
330
C
100
AcDbDictionary
  3
STANDARD
350
18
  0
DICTIONARY
  5
19
330
C
100
AcDbDictionary
  0
ENDSEC
  0
EOF
