<?xml version="1.0" encoding="UTF-8" standalone="no"?>
<!-- Created with Inkscape (http://www.inkscape.org/) -->

<svg
   xmlns:dc="http://purl.org/dc/elements/1.1/"
   xmlns:cc="http://creativecommons.org/ns#"
   xmlns:rdf="http://www.w3.org/1999/02/22-rdf-syntax-ns#"
   xmlns:svg="http://www.w3.org/2000/svg"
   xmlns="http://www.w3.org/2000/svg"
   xmlns:sodipodi="http://sodipodi.sourceforge.net/DTD/sodipodi-0.dtd"
   xmlns:inkscape="http://www.inkscape.org/namespaces/inkscape"
   width="48in"
   height="48in"
   viewBox="0 0 1219.2 1219.2"
   version="1.1"
   id="svg8"
   inkscape:version="0.92.3 (2405546, 2018-03-11)"
   sodipodi:docname="squares-g1.svg">
  <sodipodi:namedview
     id="base"
     pagecolor="#ffffff"
     bordercolor="#666666"
     borderopacity="1.0"
     inkscape:pageopacity="0.0"
     inkscape:pageshadow="2"
     inkscape:zoom="0.0875"
     inkscape:cx="966.8124"
     inkscape:cy="2122.0054"
     inkscape:document-units="mm"
     inkscape:current-layer="g820"
     showgrid="false"
     units="in"
     fit-margin-top="0"
     fit-margin-left="0"
     fit-margin-right="0"
     fit-margin-bottom="0"
     inkscape:window-width="1362"
     inkscape:window-height="729"
     inkscape:window-x="0"
     inkscape:window-y="18"
     inkscape:window-maximized="0" />
  <defs
     id="defs2" />
  <metadata
     id="metadata5">
    <rdf:RDF>
      <cc:Work
         rdf:about="">
        <dc:format>image/svg+xml</dc:format>
        <dc:type
           rdf:resource="http://purl.org/dc/dcmitype/StillImage" />
        <dc:title></dc:title>
      </cc:Work>
    </rdf:RDF>
  </metadata>
  <g
     transform="translate(0,922.20002)"
     id="layer1"
     inkscape:groupmode="layer"
     inkscape:label="outline">
    <path
       inkscape:connector-curvature="0"
       id="rect815"
       d="M 76.2,-846.00002 H 1143 v 1066.8 H 76.2 Z"
       style="fill:#ff0000;stroke:none;stroke-width:650.24157715;stroke-miterlimit:4;stroke-dasharray:none" />
  </g>
  <g
     inkscape:label="squares"
     inkscape:groupmode="layer"
     id="g820"
     transform="translate(0,922.20002)">
    <path
       inkscape:tile-y0="101.6"
       inkscape:tile-x0="101.6"
       inkscape:tile-h="304.8"
       inkscape:tile-w="304.8"
       inkscape:tile-cy="254"
       inkscape:tile-cx="254"
       style="fill:#000000;stroke:none;stroke-width:185.78330994;stroke-miterlimit:4;stroke-dasharray:none"
       d="m 115.824,-806.37602 h 304.8 v 304.8 h -304.8 z"
       id="path818"
       inkscape:connector-curvature="0" />
    <path
       inkscape:connector-curvature="0"
       id="use860"
       d="m 115.824,-465.00002 h 304.8 v 304.8 h -304.8 z"
       style="fill:#000000;stroke:none;stroke-width:185.78330994;stroke-miterlimit:4;stroke-dasharray:none"
       inkscape:tile-x0="101.6"
       inkscape:tile-y0="101.6" />
    <path
       inkscape:connector-curvature="0"
       id="use862"
       d="m 115.824,-123.62402 h 304.8 v 304.8 h -304.8 z"
       style="fill:#000000;stroke:none;stroke-width:185.78330994;stroke-miterlimit:4;stroke-dasharray:none"
       inkscape:tile-x0="101.6"
       inkscape:tile-y0="101.6" />
    <path
       inkscape:connector-curvature="0"
       id="use864"
       d="M 457.2,-806.37602 H 762 v 304.8 H 457.2 Z"
       style="fill:#000000;stroke:none;stroke-width:185.78330994;stroke-miterlimit:4;stroke-dasharray:none"
       inkscape:tile-x0="101.6"
       inkscape:tile-y0="101.6" />
    <path
       inkscape:connector-curvature="0"
       id="use866"
       d="M 457.2,-465.00002 H 762 v 304.8 H 457.2 Z"
       style="fill:#000000;stroke:none;stroke-width:185.78330994;stroke-miterlimit:4;stroke-dasharray:none"
       inkscape:tile-x0="101.6"
       inkscape:tile-y0="101.6" />
    <path
       inkscape:connector-curvature="0"
       id="use868"
       d="M 457.2,-123.62402 H 762 v 304.8 H 457.2 Z"
       style="fill:#000000;stroke:none;stroke-width:185.78330994;stroke-miterlimit:4;stroke-dasharray:none"
       inkscape:tile-x0="101.6"
       inkscape:tile-y0="101.6" />
    <path
       inkscape:connector-curvature="0"
       id="use870"
       d="m 798.576,-806.37602 h 304.8 v 304.8 h -304.8 z"
       style="fill:#000000;stroke:none;stroke-width:185.78330994;stroke-miterlimit:4;stroke-dasharray:none"
       inkscape:tile-x0="101.6"
       inkscape:tile-y0="101.6" />
    <path
       inkscape:connector-curvature="0"
       id="use872"
       d="m 798.576,-465.00002 h 304.8 v 304.8 h -304.8 z"
       style="fill:#000000;stroke:none;stroke-width:185.78330994;stroke-miterlimit:4;stroke-dasharray:none"
       inkscape:tile-x0="101.6"
       inkscape:tile-y0="101.6" />
    <path
       inkscape:connector-curvature="0"
       id="use874"
       d="m 798.576,-123.62402 h 304.8 v 304.8 h -304.8 z"
       style="fill:#000000;stroke:none;stroke-width:185.78330994;stroke-miterlimit:4;stroke-dasharray:none"
       inkscape:tile-x0="101.6"
       inkscape:tile-y0="101.6" />
    <g
       id="g1586"
       transform="matrix(1.000000,0.000000,0.000000,1.000000,955.488301,915.956861)"
       gcodetools="Gcodetools tool definition">
      <path
         id="path1500"
         d="m -20,-20 l 400,0 0,265.000000 -400,0 z "
         style="fill:#00ff00;fill-opacity:0.5;stroke:#444444; stroke-width:1px;"
         gcodetools="Gcodetools tool background" />
      <g
         id="g1510"
         gcodetools="Gcodetools tool parameter">
        <text
           id="text1504"
           xml:space="preserve"
           y="0"
           x="0"
           style="font-family:DejaVu Sans;font-style:normal;font-variant:normal;font-weight:normal;font-stretch:normal;font-family:DejaVu Sans;fill:#000000;fill-opacity:1;stroke:none;font-size:20.000000px;"
           gcodetools="Gcodetools tool definition field name"><tspan
             id="tspan1502"
             sodipodi:role="line"
             y="0"
             x="0">name</tspan></text>
        <text
           id="text1508"
           xml:space="preserve"
           y="0"
           x="150"
           style="font-family:DejaVu Sans;font-style:normal;font-variant:normal;font-weight:normal;font-stretch:normal;font-family:DejaVu Sans;fill:#000000;fill-opacity:1;stroke:none;font-size:20.000000px;"
           gcodetools="Gcodetools tool definition field value"><tspan
             id="tspan1506"
             sodipodi:role="line"
             y="0"
             x="150">Plasma cutter</tspan></text>
      </g>
      <g
         id="g1520"
         gcodetools="Gcodetools tool parameter">
        <text
           id="text1514"
           xml:space="preserve"
           y="20"
           x="0"
           style="font-family:DejaVu Sans;font-style:normal;font-variant:normal;font-weight:normal;font-stretch:normal;font-family:DejaVu Sans;fill:#000000;fill-opacity:1;stroke:none;font-size:10.000000px;"
           gcodetools="Gcodetools tool definition field name"><tspan
             id="tspan1512"
             sodipodi:role="line"
             y="20"
             x="0">id</tspan></text>
        <text
           id="text1518"
           xml:space="preserve"
           y="20"
           x="150"
           style="font-family:DejaVu Sans;font-style:normal;font-variant:normal;font-weight:normal;font-stretch:normal;font-family:DejaVu Sans;fill:#000000;fill-opacity:1;stroke:none;font-size:10.000000px;"
           gcodetools="Gcodetools tool definition field value"><tspan
             id="tspan1516"
             sodipodi:role="line"
             y="20"
             x="150">Plasma cutter 0001</tspan></text>
      </g>
      <g
         id="g1530"
         gcodetools="Gcodetools tool parameter">
        <text
           id="text1524"
           xml:space="preserve"
           y="35"
           x="0"
           style="font-family:DejaVu Sans;font-style:normal;font-variant:normal;font-weight:normal;font-stretch:normal;font-family:DejaVu Sans;fill:#000000;fill-opacity:1;stroke:none;font-size:10.000000px;"
           gcodetools="Gcodetools tool definition field name"><tspan
             id="tspan1522"
             sodipodi:role="line"
             y="35"
             x="0">diameter</tspan></text>
        <text
           id="text1528"
           xml:space="preserve"
           y="35"
           x="150"
           style="font-style:normal;font-variant:normal;font-weight:normal;font-stretch:normal;font-size:10px;font-family:'DejaVu Sans';fill:#000000;fill-opacity:1;stroke:none"
           gcodetools="Gcodetools tool definition field value"><tspan
             id="tspan1526"
             sodipodi:role="line"
             y="35"
             x="150">1</tspan></text>
      </g>
      <g
         id="g1540"
         gcodetools="Gcodetools tool parameter">
        <text
           id="text1534"
           xml:space="preserve"
           y="50"
           x="0"
           style="font-family:DejaVu Sans;font-style:normal;font-variant:normal;font-weight:normal;font-stretch:normal;font-family:DejaVu Sans;fill:#000000;fill-opacity:1;stroke:none;font-size:10.000000px;"
           gcodetools="Gcodetools tool definition field name"><tspan
             id="tspan1532"
             sodipodi:role="line"
             y="50"
             x="0">feed</tspan></text>
        <text
           id="text1538"
           xml:space="preserve"
           y="50"
           x="150"
           style="font-style:normal;font-variant:normal;font-weight:normal;font-stretch:normal;font-size:10px;font-family:'DejaVu Sans';fill:#000000;fill-opacity:1;stroke:none"
           gcodetools="Gcodetools tool definition field value"><tspan
             id="tspan1536"
             sodipodi:role="line"
             y="50"
             x="150">200</tspan></text>
      </g>
      <g
         id="g1550"
         gcodetools="Gcodetools tool parameter">
        <text
           id="text1544"
           xml:space="preserve"
           y="65"
           x="0"
           style="font-family:DejaVu Sans;font-style:normal;font-variant:normal;font-weight:normal;font-stretch:normal;font-family:DejaVu Sans;fill:#000000;fill-opacity:1;stroke:none;font-size:10.000000px;"
           gcodetools="Gcodetools tool definition field name"><tspan
             id="tspan1542"
             sodipodi:role="line"
             y="65"
             x="0">penetration feed</tspan></text>
        <text
           id="text1548"
           xml:space="preserve"
           y="65"
           x="150"
           style="font-family:DejaVu Sans;font-style:normal;font-variant:normal;font-weight:normal;font-stretch:normal;font-family:DejaVu Sans;fill:#000000;fill-opacity:1;stroke:none;font-size:10.000000px;"
           gcodetools="Gcodetools tool definition field value"><tspan
             id="tspan1546"
             sodipodi:role="line"
             y="65"
             x="150">100</tspan></text>
      </g>
      <g
         id="g1572"
         gcodetools="Gcodetools tool parameter">
        <text
           id="text1554"
           xml:space="preserve"
           y="80"
           x="0"
           style="font-family:DejaVu Sans;font-style:normal;font-variant:normal;font-weight:normal;font-stretch:normal;font-family:DejaVu Sans;fill:#000000;fill-opacity:1;stroke:none;font-size:10.000000px;"
           gcodetools="Gcodetools tool definition field name"><tspan
             id="tspan1552"
             sodipodi:role="line"
             y="80"
             x="0">gcode before path</tspan></text>
        <text
           id="text1570"
           xml:space="preserve"
           y="80"
           x="150"
           style="font-family:DejaVu Sans;font-style:normal;font-variant:normal;font-weight:normal;font-stretch:normal;font-family:DejaVu Sans;fill:#000000;fill-opacity:1;stroke:none;font-size:10.000000px;"
           gcodetools="Gcodetools tool definition field value"><tspan
             id="tspan1556"
             sodipodi:role="line"
             y="80"
             x="150">G31 Z-100 F500 (find metal)</tspan><tspan
             id="tspan1558"
             sodipodi:role="line"
             y="90"
             x="150">G92 Z0 (zero z)</tspan><tspan
             id="tspan1560"
             sodipodi:role="line"
             y="100"
             x="150">G00 Z10 F500 (going up)</tspan><tspan
             id="tspan1562"
             sodipodi:role="line"
             y="110"
             x="150">M03 (turn on plasma)</tspan><tspan
             id="tspan1564"
             sodipodi:role="line"
             y="120"
             x="150">G04 P0.2 (pause)</tspan><tspan
             id="tspan1566"
             sodipodi:role="line"
             y="130"
             x="150">G01 Z1 (going to cutting z)</tspan><tspan
             id="tspan1568"
             sodipodi:role="line"
             y="140"
             x="150" /></text>
      </g>
      <g
         id="g1584"
         gcodetools="Gcodetools tool parameter">
        <text
           id="text1576"
           xml:space="preserve"
           y="185"
           x="0"
           style="font-family:DejaVu Sans;font-style:normal;font-variant:normal;font-weight:normal;font-stretch:normal;font-family:DejaVu Sans;fill:#000000;fill-opacity:1;stroke:none;font-size:10.000000px;"
           gcodetools="Gcodetools tool definition field name"><tspan
             id="tspan1574"
             sodipodi:role="line"
             y="185"
             x="0">gcode after path</tspan></text>
        <text
           id="text1582"
           xml:space="preserve"
           y="185"
           x="150"
           style="font-family:DejaVu Sans;font-style:normal;font-variant:normal;font-weight:normal;font-stretch:normal;font-family:DejaVu Sans;fill:#000000;fill-opacity:1;stroke:none;font-size:10.000000px;"
           gcodetools="Gcodetools tool definition field value"><tspan
             id="tspan1578"
             sodipodi:role="line"
             y="185"
             x="150">M05 (turn off plasma)</tspan><tspan
             id="tspan1580"
             sodipodi:role="line"
             y="195"
             x="150" /></text>
      </g>
    </g>
    <g
       gcodetools="Gcodetools orientation group"
       transform="matrix(1.000000,0.000000,0.000000,1.000000,0.000000,-922.200020)"
       id="g1722">
      <g
         gcodetools="Gcodetools orientation point (2 points)"
         id="g1712">
        <path
           d="m 0.0,1219.19999998 2.9375,-6.343750000001 0.8125,1.90625 6.843748640396,-6.84374864039 0,0 0.6875,0.6875 -6.84375,6.84375 1.90625,0.812500000001 z z"
           gcodetools="Gcodetools orientation point arrow"
           style="stroke:none;fill:#000000;"
           id="path1706" />
        <text
           gcodetools="Gcodetools orientation point text"
           style="font-family:DejaVu Sans;font-style:normal;font-variant:normal;font-weight:normal;font-stretch:normal;font-family:DejaVu Sans;fill:#000000;fill-opacity:1;stroke:none;font-size:10.000000px;"
           x="10.0"
           y="1209.19999998"
           xml:space="preserve"
           id="text1710"><tspan
             x="10.0"
             y="1209.19999998"
             sodipodi:role="line"
             id="tspan1708">(0.0; 0.0; 0.0)</tspan></text>
      </g>
      <g
         gcodetools="Gcodetools orientation point (2 points)"
         id="g1720">
        <path
           d="m 5.0,1219.19999998 2.9375,-6.343750000001 0.8125,1.90625 6.843748640396,-6.84374864039 0,0 0.6875,0.6875 -6.84375,6.84375 1.90625,0.812500000001 z z"
           gcodetools="Gcodetools orientation point arrow"
           style="stroke:none;fill:#000000;"
           id="path1714" />
        <text
           gcodetools="Gcodetools orientation point text"
           style="font-family:DejaVu Sans;font-style:normal;font-variant:normal;font-weight:normal;font-stretch:normal;font-family:DejaVu Sans;fill:#000000;fill-opacity:1;stroke:none;font-size:10.000000px;"
           x="15.0"
           y="1209.19999998"
           xml:space="preserve"
           id="text1718"><tspan
             x="15.0"
             y="1209.19999998"
             sodipodi:role="line"
             id="tspan1716">(5.0; 0.0; -1.0)</tspan></text>
      </g>
    </g>
    <g
       id="g1932"
       gcodetools="Preview group">
      <path
         id="path1860"
         transform="matrix(1.000000,0.000000,0.000000,1.000000,0.000000,-922.200020)"
         style="stroke:#f88;stroke-width:1;marker-end:url(#DrawCurveMarker);fill:none"
         gcodetools="Preview"
         d="M 798.576,798.576 L 1103.376,798.576" />
      <path
         id="path1862"
         transform="matrix(1.000000,0.000000,0.000000,1.000000,0.000000,-922.200020)"
         style="stroke:#f88;stroke-width:1;marker-end:url(#DrawCurveMarker);fill:none"
         gcodetools="Preview"
         d="M 1103.376,798.576 L 1103.376,1103.376" />
      <path
         id="path1864"
         transform="matrix(1.000000,0.000000,0.000000,1.000000,0.000000,-922.200020)"
         style="stroke:#f88;stroke-width:1;marker-end:url(#DrawCurveMarker);fill:none"
         gcodetools="Preview"
         d="M 1103.376,1103.376 L 798.576,1103.376" />
      <path
         id="path1866"
         transform="matrix(1.000000,0.000000,0.000000,1.000000,0.000000,-922.200020)"
         style="stroke:#f88;stroke-width:1;marker-end:url(#DrawCurveMarker);fill:none"
         gcodetools="Preview"
         d="M 798.576,1103.376 L 798.576,798.576" />
      <path
         id="path1868"
         transform="matrix(1.000000,0.000000,0.000000,1.000000,0.000000,-922.200020)"
         style="stroke:#f88;stroke-width:1;marker-end:url(#DrawCurveMarker);fill:none"
         gcodetools="Preview"
         d="M 798.576,457.2 L 1103.376,457.2" />
      <path
         id="path1870"
         transform="matrix(1.000000,0.000000,0.000000,1.000000,0.000000,-922.200020)"
         style="stroke:#f88;stroke-width:1;marker-end:url(#DrawCurveMarker);fill:none"
         gcodetools="Preview"
         d="M 1103.376,457.2 L 1103.376,762.0" />
      <path
         id="path1872"
         transform="matrix(1.000000,0.000000,0.000000,1.000000,0.000000,-922.200020)"
         style="stroke:#f88;stroke-width:1;marker-end:url(#DrawCurveMarker);fill:none"
         gcodetools="Preview"
         d="M 1103.376,762.0 L 798.576,762.0" />
      <path
         id="path1874"
         transform="matrix(1.000000,0.000000,0.000000,1.000000,0.000000,-922.200020)"
         style="stroke:#f88;stroke-width:1;marker-end:url(#DrawCurveMarker);fill:none"
         gcodetools="Preview"
         d="M 798.576,762.0 L 798.576,457.2" />
      <path
         id="path1876"
         transform="matrix(1.000000,0.000000,0.000000,1.000000,0.000000,-922.200020)"
         style="stroke:#f88;stroke-width:1;marker-end:url(#DrawCurveMarker);fill:none"
         gcodetools="Preview"
         d="M 798.576,115.824 L 1103.376,115.824" />
      <path
         id="path1878"
         transform="matrix(1.000000,0.000000,0.000000,1.000000,0.000000,-922.200020)"
         style="stroke:#f88;stroke-width:1;marker-end:url(#DrawCurveMarker);fill:none"
         gcodetools="Preview"
         d="M 1103.376,115.824 L 1103.376,420.624" />
      <path
         id="path1880"
         transform="matrix(1.000000,0.000000,0.000000,1.000000,0.000000,-922.200020)"
         style="stroke:#f88;stroke-width:1;marker-end:url(#DrawCurveMarker);fill:none"
         gcodetools="Preview"
         d="M 1103.376,420.624 L 798.576,420.624" />
      <path
         id="path1882"
         transform="matrix(1.000000,0.000000,0.000000,1.000000,0.000000,-922.200020)"
         style="stroke:#f88;stroke-width:1;marker-end:url(#DrawCurveMarker);fill:none"
         gcodetools="Preview"
         d="M 798.576,420.624 L 798.576,115.824" />
      <path
         id="path1884"
         transform="matrix(1.000000,0.000000,0.000000,1.000000,0.000000,-922.200020)"
         style="stroke:#f88;stroke-width:1;marker-end:url(#DrawCurveMarker);fill:none"
         gcodetools="Preview"
         d="M 457.2,798.576 L 762.0,798.576" />
      <path
         id="path1886"
         transform="matrix(1.000000,0.000000,0.000000,1.000000,0.000000,-922.200020)"
         style="stroke:#f88;stroke-width:1;marker-end:url(#DrawCurveMarker);fill:none"
         gcodetools="Preview"
         d="M 762.0,798.576 L 762.0,1103.376" />
      <path
         id="path1888"
         transform="matrix(1.000000,0.000000,0.000000,1.000000,0.000000,-922.200020)"
         style="stroke:#f88;stroke-width:1;marker-end:url(#DrawCurveMarker);fill:none"
         gcodetools="Preview"
         d="M 762.0,1103.376 L 457.2,1103.376" />
      <path
         id="path1890"
         transform="matrix(1.000000,0.000000,0.000000,1.000000,0.000000,-922.200020)"
         style="stroke:#f88;stroke-width:1;marker-end:url(#DrawCurveMarker);fill:none"
         gcodetools="Preview"
         d="M 457.2,1103.376 L 457.2,798.576" />
      <path
         id="path1892"
         transform="matrix(1.000000,0.000000,0.000000,1.000000,0.000000,-922.200020)"
         style="stroke:#f88;stroke-width:1;marker-end:url(#DrawCurveMarker);fill:none"
         gcodetools="Preview"
         d="M 457.2,457.2 L 762.0,457.2" />
      <path
         id="path1894"
         transform="matrix(1.000000,0.000000,0.000000,1.000000,0.000000,-922.200020)"
         style="stroke:#f88;stroke-width:1;marker-end:url(#DrawCurveMarker);fill:none"
         gcodetools="Preview"
         d="M 762.0,457.2 L 762.0,762.0" />
      <path
         id="path1896"
         transform="matrix(1.000000,0.000000,0.000000,1.000000,0.000000,-922.200020)"
         style="stroke:#f88;stroke-width:1;marker-end:url(#DrawCurveMarker);fill:none"
         gcodetools="Preview"
         d="M 762.0,762.0 L 457.2,762.0" />
      <path
         id="path1898"
         transform="matrix(1.000000,0.000000,0.000000,1.000000,0.000000,-922.200020)"
         style="stroke:#f88;stroke-width:1;marker-end:url(#DrawCurveMarker);fill:none"
         gcodetools="Preview"
         d="M 457.2,762.0 L 457.2,457.2" />
      <path
         id="path1900"
         transform="matrix(1.000000,0.000000,0.000000,1.000000,0.000000,-922.200020)"
         style="stroke:#f88;stroke-width:1;marker-end:url(#DrawCurveMarker);fill:none"
         gcodetools="Preview"
         d="M 457.2,115.824 L 762.0,115.824" />
      <path
         id="path1902"
         transform="matrix(1.000000,0.000000,0.000000,1.000000,0.000000,-922.200020)"
         style="stroke:#f88;stroke-width:1;marker-end:url(#DrawCurveMarker);fill:none"
         gcodetools="Preview"
         d="M 762.0,115.824 L 762.0,420.624" />
      <path
         id="path1904"
         transform="matrix(1.000000,0.000000,0.000000,1.000000,0.000000,-922.200020)"
         style="stroke:#f88;stroke-width:1;marker-end:url(#DrawCurveMarker);fill:none"
         gcodetools="Preview"
         d="M 762.0,420.624 L 457.2,420.624" />
      <path
         id="path1906"
         transform="matrix(1.000000,0.000000,0.000000,1.000000,0.000000,-922.200020)"
         style="stroke:#f88;stroke-width:1;marker-end:url(#DrawCurveMarker);fill:none"
         gcodetools="Preview"
         d="M 457.2,420.624 L 457.2,115.824" />
      <path
         id="path1908"
         transform="matrix(1.000000,0.000000,0.000000,1.000000,0.000000,-922.200020)"
         style="stroke:#f88;stroke-width:1;marker-end:url(#DrawCurveMarker);fill:none"
         gcodetools="Preview"
         d="M 115.824,798.576 L 420.624,798.576" />
      <path
         id="path1910"
         transform="matrix(1.000000,0.000000,0.000000,1.000000,0.000000,-922.200020)"
         style="stroke:#f88;stroke-width:1;marker-end:url(#DrawCurveMarker);fill:none"
         gcodetools="Preview"
         d="M 420.624,798.576 L 420.624,1103.376" />
      <path
         id="path1912"
         transform="matrix(1.000000,0.000000,0.000000,1.000000,0.000000,-922.200020)"
         style="stroke:#f88;stroke-width:1;marker-end:url(#DrawCurveMarker);fill:none"
         gcodetools="Preview"
         d="M 420.624,1103.376 L 115.824,1103.376" />
      <path
         id="path1914"
         transform="matrix(1.000000,0.000000,0.000000,1.000000,0.000000,-922.200020)"
         style="stroke:#f88;stroke-width:1;marker-end:url(#DrawCurveMarker);fill:none"
         gcodetools="Preview"
         d="M 115.824,1103.376 L 115.824,798.576" />
      <path
         id="path1916"
         transform="matrix(1.000000,0.000000,0.000000,1.000000,0.000000,-922.200020)"
         style="stroke:#f88;stroke-width:1;marker-end:url(#DrawCurveMarker);fill:none"
         gcodetools="Preview"
         d="M 115.824,457.2 L 420.624,457.2" />
      <path
         id="path1918"
         transform="matrix(1.000000,0.000000,0.000000,1.000000,0.000000,-922.200020)"
         style="stroke:#f88;stroke-width:1;marker-end:url(#DrawCurveMarker);fill:none"
         gcodetools="Preview"
         d="M 420.624,457.2 L 420.624,762.0" />
      <path
         id="path1920"
         transform="matrix(1.000000,0.000000,0.000000,1.000000,0.000000,-922.200020)"
         style="stroke:#f88;stroke-width:1;marker-end:url(#DrawCurveMarker);fill:none"
         gcodetools="Preview"
         d="M 420.624,762.0 L 115.824,762.0" />
      <path
         id="path1922"
         transform="matrix(1.000000,0.000000,0.000000,1.000000,0.000000,-922.200020)"
         style="stroke:#f88;stroke-width:1;marker-end:url(#DrawCurveMarker);fill:none"
         gcodetools="Preview"
         d="M 115.824,762.0 L 115.824,457.2" />
      <path
         id="path1924"
         transform="matrix(1.000000,0.000000,0.000000,1.000000,0.000000,-922.200020)"
         style="stroke:#f88;stroke-width:1;marker-end:url(#DrawCurveMarker);fill:none"
         gcodetools="Preview"
         d="M 115.824,115.824 L 420.624,115.824" />
      <path
         id="path1926"
         transform="matrix(1.000000,0.000000,0.000000,1.000000,0.000000,-922.200020)"
         style="stroke:#f88;stroke-width:1;marker-end:url(#DrawCurveMarker);fill:none"
         gcodetools="Preview"
         d="M 420.624,115.824 L 420.624,420.624" />
      <path
         id="path1928"
         transform="matrix(1.000000,0.000000,0.000000,1.000000,0.000000,-922.200020)"
         style="stroke:#f88;stroke-width:1;marker-end:url(#DrawCurveMarker);fill:none"
         gcodetools="Preview"
         d="M 420.624,420.624 L 115.824,420.624" />
      <path
         id="path1930"
         transform="matrix(1.000000,0.000000,0.000000,1.000000,0.000000,-922.200020)"
         style="stroke:#f88;stroke-width:1;marker-end:url(#DrawCurveMarker);fill:none"
         gcodetools="Preview"
         d="M 115.824,420.624 L 115.824,115.824" />
    </g>
    <g
       id="g1942"
       gcodetools="Preview group">
      <path
         id="path1934"
         transform="matrix(1.000000,0.000000,0.000000,1.000000,0.000000,-922.200020)"
         style="stroke:#f88;stroke-width:1;marker-end:url(#DrawCurveMarker);fill:none"
         gcodetools="Preview"
         d="M 76.2,76.2 L 1143.0,76.2" />
      <path
         id="path1936"
         transform="matrix(1.000000,0.000000,0.000000,1.000000,0.000000,-922.200020)"
         style="stroke:#f88;stroke-width:1;marker-end:url(#DrawCurveMarker);fill:none"
         gcodetools="Preview"
         d="M 1143.0,76.2 L 1143.0,1143.0" />
      <path
         id="path1938"
         transform="matrix(1.000000,0.000000,0.000000,1.000000,0.000000,-922.200020)"
         style="stroke:#f88;stroke-width:1;marker-end:url(#DrawCurveMarker);fill:none"
         gcodetools="Preview"
         d="M 1143.0,1143.0 L 76.2,1143.0" />
      <path
         id="path1940"
         transform="matrix(1.000000,0.000000,0.000000,1.000000,0.000000,-922.200020)"
         style="stroke:#f88;stroke-width:1;marker-end:url(#DrawCurveMarker);fill:none"
         gcodetools="Preview"
         d="M 76.2,1143.0 L 76.2,76.2" />
    </g>
  </g>
  <g
     id="g1945" />
  <defs
     id="defs1950">
    <marker
       style="overflow:visible"
       refY="-1.687441"
       refX="-4"
       orient="auto"
       id="CheckToolsAndOPMarker">
      <path
         id="path1947"
         style="fill:#000044; fill-rule:evenodd;stroke:none;"
         d="	m -4.588864,-1.687441 0.0,0.0 L -9.177728,0.0 c 0.73311,-0.996261 0.728882,-2.359329 0.0,-3.374882" />
    </marker>
  </defs>
  <defs
     id="defs1955">
    <marker
       style="overflow:visible"
       refY="-1.687441"
       refX="-4"
       orient="auto"
       id="DrawCurveMarker">
      <path
         id="path1952"
         style="fill:#000044; fill-rule:evenodd;stroke:none;"
         d="m -4.588864,-1.687441 0.0,0.0 L -9.177728,0.0 c 0.73311,-0.996261 0.728882,-2.359329 0.0,-3.374882" />
    </marker>
  </defs>
  <defs
     id="defs1960">
    <marker
       style="overflow:visible"
       refY="-1.687441"
       refX="4"
       orient="auto"
       id="DrawCurveMarker_r">
      <path
         id="path1957"
         style="fill:#000044; fill-rule:evenodd;stroke:none;"
         d="m 4.588864,-1.687441 0.0,0.0 L 9.177728,0.0 c -0.73311,-0.996261 -0.728882,-2.359329 0.0,-3.374882" />
    </marker>
  </defs>
  <defs
     id="defs1965">
    <marker
       style="overflow:visible"
       refY="-1.687441"
       refX="-4"
       orient="auto"
       id="InOutPathMarker">
      <path
         id="path1962"
         style="fill:#0072a7; fill-rule:evenodd;stroke:none;"
         d="m -4.588864,-1.687441 0.0,0.0 L -9.177728,0.0 c 0.73311,-0.996261 0.728882,-2.359329 0.0,-3.374882" />
    </marker>
  </defs>
</svg>
